,Class,MTH,FLD,RFC,INT,SZ,CPX,EX,RET,BCM,NML,buggy
0,Base64VLQTest,6,0,19,0,28,5,1,0,1,23.666666666666668,0.0
1,CharIteratorImpl,3,3,4,1,5,0,0,2,0,4.666666666666667,0.0
2,SourceMapTestCase,17,3,75,0,82,14,2,7,5,11.647058823529411,0.0
3,RunResult,0,3,0,0,0,0,0,0,0,0.0,0.0
4,Token,1,5,1,0,103,0,1,101,1,4.0,0.0
5,Base64Test,3,0,16,0,9,1,0,0,1,12.666666666666666,0.0
6,SourceMapGeneratorV1Test,18,0,40,0,24,0,0,2,1,18.666666666666668,0.0
7,SourceMapConsumerV1Test,16,0,235,0,175,5,0,0,0,20.9375,0.0
8,SourceMapConsumerV2Test,8,0,80,0,53,0,0,0,0,20.25,0.0
9,SourceMapGeneratorV3Test,25,0,105,0,58,2,0,6,1,18.52,0.0
10,SourceMapGeneratorV2Test,21,0,113,0,60,0,0,4,1,18.0,0.0
11,LinkedFlowScopeTest,15,7,219,0,127,9,0,1,4,12.0,0.0
12,RuntimeTypeCheckTest,24,0,50,0,26,0,0,2,1,16.5,0.0
13,FunctionTypeBuilderTest,9,0,26,0,12,1,0,2,1,26.88888888888889,0.0
14,OptimizeCallsTest,4,0,11,0,9,0,0,1,1,35.0,0.0
15,PeepholeSubstituteAlternateSyntaxTest,59,2,500,0,448,2,0,2,4,19.54237288135593,0.0
16,StringCompareTestCase,2,0,14,0,14,0,0,1,0,13.5,0.0
17,MemoizedScopeCreatorTest,2,0,12,0,9,0,0,0,1,18.0,0.0
18,SimpleFunctionAliasAnalysisTest,7,2,47,0,47,0,0,2,1,21.857142857142858,0.0
19,FunctionFinder,2,4,8,0,6,2,0,0,2,5.0,0.0
20,NameAnonymousFunctionsTest,15,1,31,0,17,0,0,1,1,25.933333333333334,0.0
21,CompilerOptionsTest,2,0,19,0,9,0,0,0,1,13.5,0.0
22,FunctionArgumentInjectorTest,45,1,188,0,88,9,0,10,1,29.844444444444445,0.0
23,ControlStructureCheckTest,24,4,47,0,26,0,0,1,1,20.166666666666668,0.0
24,PeepholeIntegrationTest,42,1,168,0,141,0,0,3,4,20.83333333333333,0.0
25,ObjectPropertyStringPreprocessTest,9,0,12,0,9,0,0,2,1,18.33333333333333,0.0
26,AliasStringsTest,16,5,62,0,59,1,0,1,1,17.5,0.0
27,SpecializeModuleTest,14,4,105,0,18,0,0,1,1,35.0,0.0
28,SpecializeModuleSpecializationStateTest,5,2,67,0,30,0,0,2,1,17.6,0.0
29,FunctionFinder,1,2,4,0,3,1,0,0,1,5.0,0.0
30,JsMessageExtractorTest,13,0,150,0,45,0,0,3,1,21.692307692307693,0.0
31,NameAnalyzerTest,336,1,671,0,340,0,0,2,3,22.05952380952381,0.0
32,MarkNoSideEffectCallsAndNameAnalyzerRunner,1,2,3,1,2,0,0,0,0,7.0,0.0
33,TypeValidatorTest,9,1,45,0,15,0,0,3,1,15.88888888888889,0.0
34,SideEffectsAnalysisTest,17,5,86,0,82,2,0,4,1,21.823529411764707,0.0
35,LabeledStatementSearcher,1,2,6,0,3,1,0,0,1,5.0,0.0
36,MoveFunctionDeclarationsTest,5,0,10,0,6,0,0,1,1,25.0,0.0
37,AliasExternalsTest,28,5,84,0,53,0,0,4,12,22.607142857142858,0.0
38,XtbMessageBundleTest,1,2,17,0,8,0,0,0,1,4.0,0.0
39,CheckGlobalNamesTest,47,4,111,0,64,1,0,2,1,26.74468085106383,0.0
40,NodeTraversalTest,7,0,71,0,33,0,1,2,1,20.0,0.0
41,PruningCallback,1,0,1,0,1,0,1,0,1,5.0,0.0
42,ExpectNodeOnEnterScope,6,3,9,1,8,0,0,1,0,9.5,0.0
43,CombinedCompilerPassTest,6,1,91,0,37,3,0,2,2,15.5,0.0
44,ConcatTraversal,6,3,16,1,10,0,0,5,3,10.666666666666666,0.0
45,TestHelper,2,3,8,0,3,0,0,1,1,12.0,0.0
46,ScopeRecordingCallback,6,2,12,1,4,0,0,2,1,10.0,0.0
47,FunctionRewriterTest,20,5,47,0,37,2,0,2,1,19.4,0.0
48,ExtractPrototypeMemberDeclarationsTest,20,2,77,0,49,6,0,7,1,24.5,0.0
49,DeadAssignmentsEliminationTest,52,0,211,0,165,0,0,2,2,18.942307692307693,0.0
50,StatementFusionTest,15,0,43,0,32,0,0,1,1,16.266666666666666,0.0
51,RenamePropertiesTest,44,5,109,0,68,0,0,3,1,31.477272727272727,0.0
52,ProcessClosurePrimitivesTest,83,5,301,0,195,7,0,3,1,24.879518072289155,0.0
53,CallGraphTest,44,4,617,0,226,10,1,10,6,32.09090909090909,0.0
54,PeepholeRemoveDeadCodeTest,83,1,338,0,261,0,0,2,2,17.6144578313253,0.0
55,CheckUnreachableCodeTest,22,0,84,0,65,0,0,1,1,21.59090909090909,0.0
56,FunctionInjectorTest,143,5,389,0,205,8,0,10,2,30.524475524475523,0.0
57,TestCallback,4,6,22,2,23,7,0,2,0,9.5,0.0
58,RhinoErrorReporterTest,7,1,44,0,27,1,0,3,4,14.857142857142858,0.0
59,GroupVariableDeclarationsTest,9,0,36,0,31,0,0,1,0,27.33333333333333,0.0
60,InlineObjectLiteralsTest,35,2,91,0,59,0,0,1,1,11.885714285714286,0.0
61,CheckPathsBetweenNodesTest,15,3,227,0,125,0,0,4,8,13.333333333333334,0.0
62,PrefixPredicate,1,1,2,1,1,0,0,1,1,5.0,0.0
63,CountingPredicate,1,2,2,1,2,0,0,1,0,5.0,0.0
64,NormalizeTest,38,1,196,0,139,7,0,5,1,18.73684210526316,0.0
65,WithCollapse,3,0,10,0,10,0,0,2,0,17.0,0.0
66,CodePrinterTest,88,1,620,0,485,6,0,8,0,17.829545454545453,0.0
67,CheckGlobalThisTest,50,0,98,0,51,0,0,1,1,16.46,0.0
68,PeepholeFoldConstantsTest,72,2,865,0,774,11,0,6,1,18.01388888888889,0.0
69,ExpressionDecomposerTest,47,0,189,0,138,10,0,7,3,20.382978723404257,0.0
70,Find,1,1,7,0,14,5,0,3,0,4.0,0.0
71,ClosureCodingConventionTest,33,1,207,0,100,0,0,1,1,22.12121212121212,0.0
72,CreateSyntheticBlocksTest,16,2,33,0,22,0,0,2,1,16.875,0.0
73,RenameVarsTest,50,10,153,0,144,3,0,6,1,26.32,0.0
74,ClosurePassAndRenameVars,1,1,4,1,3,0,0,0,0,7.0,0.0
75,SyntacticScopeCreatorTest,9,0,64,0,30,0,0,2,4,17.22222222222222,0.0
76,ClosureCodeRemovalTest,11,1,20,0,11,0,0,1,1,22.818181818181817,0.0
77,PhaseOptimizerTest,21,4,123,0,75,2,0,4,1,13.333333333333334,0.0
78,SanityCheckTest,6,1,35,0,33,0,0,2,1,17.333333333333332,0.0
79,CheckSideEffectsTest,10,2,49,0,42,0,0,2,0,13.0,0.0
80,ExpandJqueryAliasesTest,4,4,26,0,24,0,0,1,1,23.5,0.0
81,ProcessTweaksTest,38,2,97,0,66,1,0,2,1,22.36842105263158,0.0
82,CommandLineRunnerTest,126,12,602,0,421,13,1,6,5,20.214285714285715,0.0
83,ClosureRewriteClassTest,16,0,41,0,31,0,0,2,1,12.625,0.0
84,AstParallelizerTest,10,1,52,0,29,3,0,0,2,21.6,0.0
85,FixedPointGraphTraversalTest,10,5,78,0,87,0,0,1,1,9.6,0.0
86,Counter,0,1,0,0,0,0,0,0,0,0.0,0.0
87,CounterIncrementer,1,0,1,1,2,0,0,1,0,12.0,0.0
88,InlineVariablesConstantsTest,12,1,46,0,37,0,0,1,1,29.916666666666668,0.0
89,VariableMapTest,9,0,104,0,37,3,0,0,1,14.11111111111111,0.0
90,BasicErrorManagerTest,12,5,65,0,15,0,0,2,1,17.666666666666668,0.0
91,CollapseVariableDeclarationsTest,7,0,25,0,20,0,0,1,1,19.142857142857142,0.0
92,InlineVariablesTest,137,2,328,0,197,0,0,1,1,23.67153284671533,0.0
93,RemoveTryCatchTest,9,0,20,0,13,0,0,2,0,21.77777777777778,0.0
94,SourceMapTest,9,1,19,0,23,1,0,3,1,18.22222222222222,0.0
95,InlinePropertiesTest,14,1,29,0,14,0,0,1,1,21.642857142857142,0.0
96,SymbolTableTest,58,2,701,0,224,10,0,8,3,23.43103448275862,0.0
97,ExploitAssignsTest,9,0,67,0,60,0,0,1,1,19.444444444444443,0.0
98,AliasKeywordsTest,13,4,87,0,58,3,0,6,4,17.923076923076923,0.0
99,CheckMissingReturnTest,13,0,68,0,60,0,0,2,3,15.538461538461538,0.0
100,NameAnonymousFunctionsMappedTest,19,3,63,0,47,1,0,2,1,23.0,0.0
101,CheckRequiresForConstructorsTest,25,0,56,0,36,2,0,2,1,31.04,0.0
102,GlobalVarReferenceMapTest,6,22,146,0,69,4,0,0,5,38.16666666666666,0.0
103,TypeCheckTest,1178,1,2914,0,1350,9,0,10,14,19.46434634974533,0.0
104,TypeCheckResult,0,4,0,0,0,0,0,0,0,0.0,0.0
105,CheckProvidesTest,11,0,21,0,12,0,0,1,1,26.818181818181817,0.0
106,CoalesceVariableNamesTest,34,1,101,0,78,1,0,2,1,15.470588235294118,0.0
107,ExportTestFunctionsTest,7,2,24,0,22,0,0,2,2,22.714285714285715,0.0
108,ProcessCommonJSModulesTest,10,0,71,0,38,2,0,2,1,14.6,0.0
109,IntegrationTestCase,15,4,79,0,51,9,0,3,7,8.0,0.0
110,LooseTypeCheckTest,805,0,2137,0,960,9,0,11,14,19.33043478260869,0.0
111,TypeCheckResult,0,2,0,0,0,0,0,0,0,0.0,0.0
112,InlineCostEstimatorTest,5,0,28,0,20,0,0,3,1,6.8,0.0
113,MakeDeclaredNamesUniqueTest,21,4,79,0,96,2,0,4,1,22.428571428571427,0.0
114,PeepholeSimplifyRegExpTest,16,0,170,0,171,0,0,1,0,19.8125,0.0
115,ReplaceStringsTest,35,4,87,0,57,1,0,3,1,18.057142857142857,0.0
116,ReplaceIdGeneratorsTest,22,3,53,0,46,0,0,2,1,17.772727272727273,0.0
117,ConstCheckTest,31,0,60,0,31,0,0,2,1,27.387096774193548,0.0
118,ShadowVariablesTest,23,1,49,0,47,0,0,2,2,20.43478260869565,0.0
119,NodeIteratorsTest,19,0,64,0,36,5,0,0,3,20.26315789473684,0.0
120,GenerateExportsTest,14,1,23,0,15,0,0,2,3,17.714285714285715,0.0
121,CheckSuspiciousCodeTest,9,0,59,0,55,0,0,2,1,13.77777777777778,0.0
122,GlobalNamespaceTest,3,0,35,0,19,0,0,1,1,20.33333333333333,0.0
123,CompilerTestCase,59,17,234,0,235,43,1,17,53,11.559322033898304,0.0
124,BlackHoleErrorManager,2,0,3,0,0,0,0,0,0,9.5,0.0
125,SimpleDefinitionFinderTest,16,1,139,0,50,0,0,2,1,18.625,0.0
126,SimpleDefinitionEnumerator,2,2,42,1,39,7,0,0,1,6.0,0.0
127,CrossModuleMethodMotionTest,26,3,78,0,34,0,0,1,1,22.07692307692308,0.0
128,GoogleCodingConventionTest,19,1,128,0,55,0,0,1,1,22.73684210526316,0.0
129,IgnoreCajaPropertiesTest,8,1,17,0,12,0,0,2,1,13.875,0.0
130,CompilerTest,8,0,103,0,44,0,0,1,1,26.875,0.0
131,LightweightMessageFormatterTest,16,1,56,0,18,0,1,5,0,18.875,0.0
132,ObjectPropertyStringPostprocessTest,6,0,7,0,6,0,0,2,1,12.833333333333334,0.0
133,MustBeReachingVariableDefTest,23,4,103,0,66,0,0,0,4,20.26086956521739,0.0
134,LabelFinder,2,0,21,0,16,6,0,0,2,5.0,0.0
135,AmbiguatePropertiesTest,43,2,108,0,68,2,0,3,1,21.48837209302325,0.0
136,PeepholeFoldWithTypesTest,10,0,24,0,16,0,0,1,1,21.7,0.0
137,ReplaceMessagesForChromeTest,9,1,14,0,11,0,0,2,1,23.444444444444443,0.0
138,ChainCallsTest,8,0,14,0,10,0,0,2,1,20.0,0.0
139,MinimizeExitPointsTest,12,0,99,0,95,0,0,2,1,18.666666666666668,0.0
140,CrossModuleCodeMotionTest,42,1,142,0,57,0,0,1,1,18.23809523809524,0.0
141,TightenTypesTest,57,1,398,0,171,0,0,12,10,18.05263157894737,0.0
142,SourceInformationAnnotatorTest,2,0,8,0,6,0,0,1,1,18.5,0.0
143,InlineSimpleMethodsTest,38,0,78,0,46,0,0,1,1,20.81578947368421,0.0
144,CheckAccessControlsTest,89,0,182,0,95,0,0,2,2,29.39325842696629,0.0
145,PrepareAstTest,4,0,43,0,12,0,0,1,1,15.0,0.0
146,ExternExportsPassTest,27,1,70,0,44,1,0,2,6,27.14814814814815,0.0
147,CollapsePropertiesTest,231,3,474,0,242,0,0,2,1,30.58008658008658,0.0
148,PeepholeOptimizationsPassTest,10,1,75,0,35,2,0,4,3,24.6,0.0
149,RemoveNodesNamedXUnderVarOptimization,1,0,9,0,12,4,0,1,1,15.0,0.0
150,RemoveNodesNamedXOptimization,1,0,7,0,6,1,0,2,1,15.0,0.0
151,RemoveParentVarsForNodesNamedX,1,0,9,0,8,2,0,2,1,15.0,0.0
152,RenameYToX,1,0,8,0,6,1,0,2,1,15.0,0.0
153,PeepholeCollectPropertyAssignmentsTest,35,0,37,0,38,0,0,1,0,25.257142857142856,0.0
154,VariableReferenceCheckTest,33,2,66,0,55,1,0,2,5,20.484848484848484,0.0
155,RecordFunctionInformationTest,11,0,151,0,29,0,0,4,1,9.181818181818182,0.0
156,JsMessageVisitorTest,48,3,429,0,203,0,0,0,1,27.979166666666668,0.0
157,CollectMessages,1,0,2,0,1,0,0,0,0,16.0,0.0
158,DummyJsVisitor,1,0,0,0,0,0,0,0,0,16.0,0.0
159,CleanupPassesTest,2,2,9,0,2,0,0,0,1,19.5,0.0
160,ConvertToDottedPropertiesTest,5,0,36,0,32,0,0,1,1,13.0,0.0
161,UnreachableCodeEliminationTest,27,1,120,0,98,0,0,1,1,23.62962962962963,0.0
162,TypedScopeCreatorTest,121,4,1153,0,430,3,0,11,1,21.98347107438017,0.0
163,CheckMissingGetCssNameTest,9,0,22,0,17,0,0,1,1,22.666666666666668,0.0
164,RescopeGlobalSymbolsTest,9,1,48,0,41,0,0,2,1,14.555555555555555,0.0
165,StringCompare,5,1,10,0,10,0,0,2,0,11.0,0.0
166,JSCompilerSourceExcerptProviderTest,9,1,90,0,46,1,0,0,2,22.77777777777778,0.0
167,FunctionToBlockMutatorTest,22,0,80,0,49,6,0,5,1,26.363636363636363,0.0
168,TestCallback,2,3,9,1,9,3,0,1,0,9.5,0.0
169,InstrumentFunctionsTest,17,1,59,0,53,1,0,2,1,13.294117647058824,0.0
170,NameAndInstrumentFunctions,1,1,3,1,2,0,0,0,0,7.0,0.0
171,RemoveUnusedClassPropertiesTest,15,1,53,0,40,0,0,1,1,12.066666666666666,0.0
172,DisambiguatePropertiesTest,69,2,216,0,147,5,0,3,5,19.55072463768116,0.0
173,TypeCheckFunctionCheckTest,21,1,66,0,52,0,0,3,1,20.19047619047619,0.0
174,ClosureReverseAbstractInterpreterTest,35,0,114,0,39,0,0,0,0,18.057142857142857,0.0
175,RemoveUnusedNamesTest,10,2,17,0,9,0,0,2,1,25.7,0.0
176,PeepholeReplaceKnownMethodsTest,19,1,182,0,170,0,0,2,1,16.0,0.0
177,ReplaceMessagesTest,38,3,163,0,74,0,0,2,1,29.36842105263158,0.0
178,SimpleMessageBundle,3,0,5,1,3,0,0,3,0,11.666666666666666,0.0
179,CollapseAnonymousFunctionsTest,20,0,39,0,20,0,0,1,1,20.3,0.0
180,JSModuleGraphTest,22,8,280,0,163,6,0,5,1,19.272727272727277,0.0
181,DevirtualizePrototypeMethodsTest,50,2,190,0,56,0,0,4,4,25.5,0.0
182,RewritePrototypeMethodTestInput,0,4,4,0,0,0,0,0,1,0.0,0.0
183,NoRewriteDeclarationUsedAsRValue,0,2,0,0,0,0,0,0,1,0.0,0.0
184,NoRewriteIfNotInGlobalScopeTestInput,0,1,1,0,0,0,0,0,1,0.0,0.0
185,NoRewriteMultipleDefinitionTestInput,0,5,0,0,0,0,0,0,1,0.0,0.0
186,NoRewritePrototypeObjectLiteralsTestInput,0,3,0,0,0,0,0,0,1,0.0,0.0
187,NoRewriteNonCallReferenceTestInput,0,1,1,0,0,0,0,0,1,0.0,0.0
188,NoRewriteNestedFunctionTestInput,0,5,0,0,0,0,0,0,1,0.0,0.0
189,ModuleTestInput,0,4,0,0,0,0,0,0,0,0.0,0.0
190,TypeInformationGatherer,2,3,44,1,26,7,0,8,1,10.0,0.0
191,GatherCallback,1,0,30,0,21,7,0,0,0,5.0,0.0
192,AstValidatorTest,15,1,42,0,45,0,0,4,1,13.666666666666666,0.0
193,DefaultCodingConventionTest,21,1,142,0,64,0,0,1,1,22.23809523809524,0.0
194,RemoveUnusedPrototypePropertiesTest,32,3,84,0,62,0,0,1,1,22.78125,0.0
195,TypeInferenceTest,129,6,694,0,438,5,0,10,1,13.767441860465116,0.0
196,NodeUtilTest,82,0,1899,0,932,24,0,19,1,19.65853658536585,0.0
197,IntegrationTest,170,2,730,0,631,4,0,1,2,22.08235294117647,0.0
198,InferJSDocInfoTest,11,2,110,0,42,3,0,6,1,15.727272727272728,0.0
199,VariableVisibilityAnalysisTest,15,2,54,0,42,2,0,5,1,17.333333333333332,0.0
200,LabeledVariableSearcher,1,2,6,0,3,1,0,0,1,5.0,0.0
201,FlowSensitiveInlineVariablesTest,79,1,198,0,123,0,0,2,1,23.11392405063291,0.0
202,GatherSideEffectSubexpressionsCallbackTest,13,0,74,0,52,2,0,4,1,26.384615384615383,0.0
203,CheckRegExpTest,3,1,22,0,22,0,0,1,1,11.666666666666666,0.0
204,RenameLabelsTest,4,0,18,0,16,0,0,1,1,16.25,0.0
205,MaybeReachingVariableUseTest,14,3,80,0,50,0,0,0,4,13.857142857142858,0.0
206,LabelFinder,1,0,11,0,8,3,0,0,1,5.0,0.0
207,ConcreteTypeTest,12,3,195,0,80,6,0,2,4,12.5,0.0
208,FakeFactory,7,4,34,1,28,6,0,7,6,19.285714285714285,0.0
209,FakeScope,5,2,10,0,12,2,0,6,4,10.2,0.0
210,FakeSlot,5,1,5,1,5,0,0,5,0,10.8,0.0
211,VarCheckTest,52,5,141,0,104,6,0,4,0,25.942307692307693,0.0
212,VariableTestCheck,1,1,11,1,4,1,0,0,0,7.0,0.0
213,DiagnosticGroupTest,1,0,3,0,1,0,0,0,1,16.0,0.0
214,RenamePrototypesTest,16,3,51,0,39,0,0,2,2,19.5625,0.0
215,DataFlowAnalysisTest,13,0,188,0,127,10,0,5,1,28.23076923076923,0.0
216,Value,2,0,0,0,2,0,0,2,1,9.0,0.0
217,Variable,4,1,4,0,7,1,0,5,1,7.25,0.0
218,Number,3,1,2,0,3,0,0,3,1,8.0,0.0
219,Instruction,2,1,0,0,2,0,0,2,3,10.0,0.0
220,ArithmeticInstruction,10,4,10,0,15,0,0,6,1,10.0,0.0
221,BranchInstruction,2,1,0,0,2,0,0,1,1,12.0,0.0
222,ConstPropLatticeElement,2,2,14,1,16,3,0,4,1,7.0,0.0
223,ConstPropJoinOp,1,0,7,0,14,5,0,3,0,5.0,0.0
224,DummyConstPropagation,4,0,2,0,8,1,0,5,1,16.5,0.0
225,BranchedDummyConstPropagation,4,0,16,0,21,5,0,5,1,19.0,0.0
226,CompilerTypeTestCase,3,4,10,0,11,0,0,2,0,11.333333333333334,0.0
227,PureFunctionIdentifierTest,114,4,416,0,158,1,0,2,1,23.640350877192983,0.0
228,NoSideEffectCallEnumerator,5,3,56,2,47,13,0,3,2,6.0,0.0
229,DenormalizeTest,5,0,25,0,21,0,0,2,1,14.2,0.0
230,NormalizeAndDenormalizePass,1,3,3,1,2,0,0,0,1,7.0,0.0
231,RenameLocalVarsTest,13,2,26,0,21,0,0,1,1,20.846153846153847,0.0
232,DotFormatterTest,5,0,35,0,19,0,0,0,4,18.8,0.0
233,StripCodeTest,53,1,122,0,67,0,0,2,2,27.943396226415093,0.0
234,ControlFlowAnalysisTest,57,0,272,0,164,16,0,10,15,16.771929824561404,0.0
235,RemoveUnusedVarsTest,85,3,229,0,165,0,0,1,0,21.54117647058824,0.0
236,GatherRawExportsTest,20,2,41,0,22,0,0,1,1,17.35,0.0
237,MarkNoSideEffectCallsTest,23,2,128,0,56,0,0,2,1,18.30434782608696,0.0
238,NoSideEffectCallEnumerator,2,2,15,1,13,4,0,0,1,6.0,0.0
239,ReplaceCssNamesTest,21,6,122,0,79,0,0,7,1,25.19047619047619,0.0
240,ReorderConstantExpressionTest,8,0,48,0,49,0,0,1,4,12.5,0.0
241,FunctionNamesTest,2,1,26,0,25,1,0,1,1,18.0,0.0
242,OptimizeArgumentsArrayTest,20,0,48,0,31,0,0,1,1,30.25,0.0
243,StrictModeCheckTest,40,3,98,0,67,0,0,3,0,14.6,0.0
244,CheckDebuggerStatementTest,8,1,15,0,19,1,0,2,1,24.25,0.0
245,OptimizeReturnsTest,26,1,82,0,35,0,0,3,2,20.807692307692307,0.0
246,ScopedAliasesTest,57,4,207,0,104,0,0,1,1,18.05263157894737,0.0
247,TransformationHandlerSpy,1,2,9,1,6,1,0,1,0,22.0,0.0
248,AliasSpy,1,1,3,1,1,0,0,0,0,8.0,0.0
249,TypeVerifyingPass,3,2,21,2,20,6,0,1,0,8.666666666666666,0.0
250,InlineFunctionsTest,231,7,508,0,345,1,0,2,2,25.5021645021645,0.0
251,StringCompare,3,1,7,0,7,0,0,1,0,11.0,0.0
252,JsMessageTest,3,0,37,0,8,0,0,0,1,15.0,0.0
253,JSModuleTest,5,5,86,0,39,1,0,0,1,14.0,0.0
254,ClosureOptimizePrimitivesTest,8,0,15,0,8,0,0,1,1,18.625,0.0
255,LiveVariableAnalysisTest,30,1,207,0,164,7,0,6,1,16.066666666666666,0.0
256,TransformAMDToCJSModuleTest,11,0,35,0,30,0,0,2,1,15.545454545454543,0.0
257,OptimizeParametersTest,58,0,183,0,129,0,0,1,1,28.120689655172413,0.0
258,ProcessDefinesTest,44,2,128,0,69,0,0,2,2,20.84090909090909,0.0
259,ProcessDefinesWithInjectedNamespace,1,1,3,1,2,0,0,0,0,7.0,0.0
260,SemanticReverseAbstractInterpreterTest,39,3,303,0,62,5,0,6,16,15.666666666666666,0.0
261,TypedName,0,2,0,0,0,0,0,0,0,0.0,0.0
262,DefinitionsRemoverTest,6,0,26,0,21,1,0,1,1,20.33333333333333,0.0
263,DefinitionsGatherer,1,1,4,0,3,1,0,0,1,5.0,0.0
264,JsonMLConversionTest,40,0,384,0,337,0,0,1,1,12.675,0.0
265,SecureCompilerTest,5,2,19,0,10,0,0,0,1,13.6,0.0
266,JsonMLValidationTest,42,0,179,0,136,2,0,0,1,22.047619047619047,0.0
267,GraphTest,18,0,352,0,220,4,0,0,1,20.33333333333333,0.0
268,GraphPrunerTest,5,0,91,0,47,0,0,0,1,23.4,0.0
269,GraphReachabilityTest,3,2,40,0,39,0,0,0,1,14.333333333333334,0.0
270,GraphColoringTest,8,0,120,0,100,14,0,2,2,17.25,0.0
271,StandardUnionFindTest,16,1,199,0,113,0,0,0,3,14.8125,0.0
272,CompileEachLineOfProgramOutput,3,2,29,0,36,4,1,1,0,5.333333333333333,0.0
273,CharRangesTest,7,1,135,0,81,7,0,0,0,18.857142857142858,0.0
274,JsFunctionParserTest,6,4,79,0,45,0,0,0,2,14.666666666666666,0.0
275,SortedDependenciesTest,9,0,103,0,26,0,0,2,1,10.444444444444445,0.0
276,JsFileParserTest,11,4,56,0,15,0,0,0,3,14.727272727272728,0.0
277,DepsFileParserTest,6,4,35,0,15,0,0,0,2,13.5,0.0
278,JsFileLineParserTest,12,2,26,0,14,0,0,0,1,13.166666666666666,0.0
279,TestParser,2,1,3,0,3,0,0,2,0,8.5,0.0
280,JsDocInfoParserTest,421,3,1861,0,668,7,0,16,5,20.182897862232775,0.0
281,IRFactoryTest,64,6,483,0,209,1,0,2,1,16.578125,0.0
282,ParserTest,111,7,733,0,350,2,2,3,2,23.64864864864865,0.0
283,ParserResult,0,2,0,0,0,0,0,0,0,0.0,0.0
284,JsDocTokenStreamTest,22,0,153,0,93,3,0,0,1,22.454545454545453,0.0
285,JSDocInfoTest,30,2,417,0,226,0,0,3,2,18.53333333333333,0.0
286,IRTest,15,0,103,0,28,0,0,0,1,10.866666666666667,0.0
287,NodeTest,39,0,349,0,151,0,0,4,0,23.97435897435897,0.0
288,TernaryValueTest,7,0,91,0,42,0,0,0,1,9.0,0.0
289,JSTypeRegistryTest,11,0,147,0,73,1,0,2,1,22.545454545454547,0.0
290,BooleanLiteralSetTest,4,0,88,0,42,0,0,0,1,11.0,0.0
291,UnionTypeBuilderTest,9,0,53,0,29,1,0,1,1,16.22222222222222,0.0
292,JSTypeTest,163,22,6445,0,3196,28,0,9,73,25.226993865030675,0.0
293,RecordTypeTest,7,0,99,0,21,0,0,0,0,21.0,0.0
294,UnionTypeTest,22,1,298,0,104,0,0,0,10,21.772727272727277,0.0
295,FunctionParamBuilderTest,1,0,27,0,8,0,0,0,1,9.0,0.0
296,PrototypeObjectTypeTest,1,0,10,0,5,0,0,0,0,12.0,0.0
297,ParameterizedTypeTest,8,0,47,0,19,0,0,1,2,15.875,0.0
298,NamedTypeTest,2,0,15,0,6,0,0,0,1,23.5,0.0
299,FunctionTypeTest,25,0,281,0,68,0,0,0,1,26.36,0.0
300,EnumElementTypeTest,2,0,35,0,12,0,0,0,1,13.5,0.0
301,Mapping,2,29,251,0,1,0,0,1,4,0.0,0.0
302,LineMapping,31,11,138,1,68,10,0,33,0,14.129032258064516,0.0
303,Builder,283,55,831,6,1479,204,37,312,25,11.133333333333333,0.0
304,OriginalMapping,34,13,131,1,102,18,0,40,0,13.794117647058824,0.0
305,Builder,251,50,728,5,1305,179,34,276,25,11.133333333333333,0.0
306,FunctionInfo,2,7,8,0,1,0,0,1,0,17.0,0.0
307,FunctionInformationMap,34,8,559,1,76,12,0,38,0,13.588235294117649,0.0
308,Entry,42,21,191,1,183,37,0,59,0,0.0,0.0
309,Builder,218,45,644,4,1146,160,30,241,25,11.133333333333333,0.0
310,Module,30,9,115,1,92,16,0,38,0,13.233333333333333,0.0
311,Builder,171,37,517,3,875,124,24,185,25,11.133333333333333,0.0
312,Builder,146,34,451,2,756,107,20,156,25,11.133333333333333,0.0
313,Instrumentation,42,17,219,1,154,28,0,52,0,14.61904761904762,0.0
314,Builder,91,29,207,1,376,42,12,89,25,11.133333333333333,0.0
315,InstrumentationTemplate,2,3,4,0,1,0,0,1,0,17.0,0.0
316,SourceMapGeneratorFactory,2,0,1,0,6,0,1,4,3,11.0,0.0
317,Util,4,1,41,0,57,8,1,3,5,18.0,0.0
318,Base64,3,2,6,0,9,1,0,3,4,11.0,0.0
319,SourceMapConsumerV1,8,5,129,1,109,25,0,10,7,13.75,0.0
320,ParseState,4,2,9,0,16,4,1,3,5,9.0,0.0
321,FileName,0,2,0,0,0,0,0,0,0,0.0,0.0
322,LineFragment,2,2,1,0,6,1,0,2,3,9.5,0.0
323,SourceFile,34,14,94,2,103,16,1,39,14,11.133333333333333,1.0
324,Builder,38,22,57,0,89,7,2,38,25,11.133333333333333,0.0
325,SourceMapLineDecoder,6,0,22,0,32,6,0,6,4,13.833333333333334,0.0
326,LineEntry,0,2,0,0,0,0,0,0,1,0.0,0.0
327,StringParser,3,2,3,0,3,0,0,3,1,5.0,0.0
328,SourceMapSection,7,4,6,0,8,0,0,7,5,10.0,0.0
329,SourceMapGeneratorV1,9,5,108,1,62,10,1,3,8,11.77777777777778,0.0
330,Mapping,0,24,0,0,0,0,0,0,4,0.0,0.0
331,MappingWriter,4,6,35,0,43,9,0,0,4,14.5,0.0
332,LineMapper,15,14,47,3,103,22,0,1,11,10.0,0.0
333,UsedMappingCheck,3,0,3,3,9,3,0,0,6,5.0,0.0
334,MappingTraversal,21,6,93,0,87,18,0,12,21,11.428571428571429,0.0
335,SourceMapGeneratorV2,18,10,181,1,117,14,1,5,14,12.38888888888889,0.0
336,Mapping,0,17,0,0,0,0,0,0,3,0.0,0.0
337,MappingWriter,2,2,18,0,19,4,0,0,2,14.5,0.0
338,LineMapper,10,9,35,2,70,14,0,1,7,10.0,0.0
339,LineMapEncoder,4,0,24,0,31,5,0,3,4,17.5,0.0
340,UsedMappingCheck,2,0,2,2,6,2,0,0,4,5.0,0.0
341,MappingTraversal,14,4,62,0,58,12,0,8,14,11.428571428571429,0.0
342,SourceMapGeneratorV3,20,9,170,1,142,18,1,6,12,12.55,0.0
343,ConsumerEntryVisitor,1,0,2,1,1,0,0,0,0,5.0,0.0
344,Mapping,0,10,0,0,0,0,0,0,2,0.0,0.0
345,UsedMappingCheck,1,0,1,1,3,1,0,0,2,5.0,0.0
346,MappingTraversal,7,2,31,0,29,6,0,4,7,11.428571428571429,0.0
347,LineMapper,5,7,20,1,42,9,0,0,4,10.0,0.0
348,SourceMapConsumerFactory,2,0,7,0,19,2,3,4,3,5.0,0.0
349,FilePosition,2,2,2,0,2,0,0,2,3,8.0,0.0
350,SourceMapConsumerV2,4,3,46,1,49,9,6,4,4,10.0,0.0
351,SourceMapParseException,0,0,0,0,0,0,0,0,1,0.0,0.0
352,SourceMapConsumerV3,15,6,160,2,161,38,13,18,11,13.133333333333333,1.0
353,DefaultSourceMapSupplier,1,0,1,1,1,0,0,1,0,12.0,0.0
354,MappingBuilder,6,8,34,0,53,6,1,8,2,11.0,0.0
355,StringCharIterator,3,3,5,1,3,0,0,3,1,5.0,0.0
356,UnmappedEntry,5,1,5,1,5,0,0,5,1,14.0,0.0
357,UnnamedEntry,4,3,4,0,4,0,0,4,1,13.0,0.0
358,NamedEntry,1,1,1,0,1,0,0,1,1,9.0,0.0
359,Base64VLQ,4,4,6,0,22,2,0,4,5,9.0,0.0
360,PeepholeSimplifyRegExp,1,0,29,0,18,4,0,2,1,15.0,0.0
361,MinimizeExitPoints,6,1,91,1,112,27,0,9,5,13.833333333333334,1.0
362,RenameLabels,1,3,51,1,1,0,0,0,1,7.0,1.0
363,DefaultNameSupplier,1,1,2,1,1,0,0,1,0,3.0,0.0
364,ProcessLabels,8,2,52,1,43,8,0,3,7,11.5,0.0
365,LabelInfo,0,2,0,0,0,0,0,0,0,0.0,0.0
366,LabelNamespace,0,1,0,0,0,0,0,0,0,0.0,0.0
367,JsMessageExtractor,2,3,19,0,13,3,1,2,3,15.0,0.0
368,ExtractMessagesVisitor,2,1,4,0,4,1,0,1,2,13.5,0.0
369,Tracer,25,16,177,0,95,14,0,20,23,16.8,0.0
370,Stat,4,4,0,0,4,0,0,4,5,11.5,0.0
371,Event,2,2,25,0,28,4,0,2,2,8.5,0.0
372,ThreadTrace,9,8,74,0,108,29,1,4,7,11.22222222222222,0.0
373,AtomicTracerStatMap,2,1,4,0,14,4,0,2,3,8.5,0.0
374,VerboseMessageFormatter,3,0,12,0,6,1,0,3,1,10.0,0.0
375,DiagnosticType,9,5,11,2,9,0,0,9,6,6.777777777777778,0.0
376,StrictModeCheck,9,13,107,1,81,27,0,3,8,11.88888888888889,0.0
377,NonExternChecks,3,0,20,0,22,8,0,0,3,11.333333333333334,0.0
378,JSModule,26,6,86,2,73,12,1,14,24,11.884615384615383,0.0
379,JsMessageDefinition,3,3,0,0,3,0,0,3,1,16.333333333333332,0.0
380,LiveVariablesAnalysis,10,4,94,0,83,17,0,17,3,16.1,1.0
381,LiveVariableJoinOp,1,0,5,1,4,1,0,1,0,5.0,0.0
382,LiveVariableLattice,5,1,14,1,7,0,0,5,1,6.8,0.0
383,StatementFusion,6,0,47,0,47,9,1,12,1,23.83333333333333,0.0
384,VariableVisibilityAnalysis,3,2,20,1,22,5,1,2,4,15.666666666666666,0.0
385,FunctionRewriter,3,2,92,1,21,6,0,2,2,17.333333333333332,1.0
386,Reduction,2,3,4,0,3,0,0,1,3,10.0,0.0
387,ReductionGatherer,2,2,4,1,7,2,0,2,1,9.5,0.0
388,Reducer,3,0,6,0,5,1,0,1,4,11.333333333333334,0.0
389,EmptyFunctionReducer,2,2,4,0,6,1,0,3,1,10.5,0.0
390,SingleReturnStatementReducer,1,0,5,0,7,2,0,3,2,26.0,0.0
391,IdentityReducer,3,2,13,0,16,4,0,7,2,13.0,0.0
392,ReturnConstantReducer,3,2,7,0,13,3,0,6,2,11.0,0.0
393,GetterReducer,3,2,13,0,16,4,1,6,2,13.0,0.0
394,SetterReducer,3,2,26,0,27,8,1,9,2,13.0,0.0
395,CheckUnreachableCode,5,3,24,1,10,2,0,2,1,9.4,0.0
396,ReachablePredicate,1,0,5,1,9,3,0,3,0,5.0,0.0
397,DataFlowAnalysis,13,4,153,0,78,22,1,6,13,11.461538461538462,0.0
398,FlowState,6,2,8,1,8,0,0,4,1,6.333333333333333,0.0
399,MaxIterationsExceededException,0,1,0,0,0,0,0,0,1,0.0,0.0
400,BranchedForwardDataFlowAnalysis,6,0,46,0,29,8,0,4,2,12.166666666666666,0.0
401,BranchedFlowState,6,2,9,1,11,1,0,4,1,6.333333333333333,0.0
402,RemoveUnusedVars,13,13,295,2,200,52,0,13,12,18.153846153846157,1.0
403,CallSiteOptimizer,11,4,86,0,100,28,0,16,10,20.90909090909091,0.0
404,Continuation,1,2,5,0,7,2,0,0,1,5.0,0.0
405,Assign,2,5,36,0,27,7,0,2,2,11.5,0.0
406,CollapseVariableDeclarations,3,3,70,1,31,6,0,1,1,12.333333333333334,1.0
407,Collapse,0,3,0,0,0,0,0,0,1,0.0,0.0
408,GatherCollapses,3,1,36,0,35,11,0,6,1,12.333333333333334,0.0
409,RemoveTryCatch,1,2,23,1,1,0,0,0,2,7.0,0.0
410,RemoveTryCatchCode,1,0,22,0,31,7,0,2,0,5.0,0.0
411,DiagnosticGroups,7,35,44,0,11,0,0,6,4,14.714285714285714,1.0
412,ObjectPropertyStringPreprocess,2,6,53,1,7,1,0,0,1,13.5,0.0
413,Callback,6,0,125,0,104,25,0,22,0,12.0,0.0
414,CheckSideEffects,5,6,58,1,44,11,0,4,2,10.4,1.0
415,StripProtection,2,1,11,1,7,2,0,0,1,6.0,0.0
416,BinaryJoinOp,3,0,13,1,13,3,0,4,3,8.333333333333334,0.0
417,FindExportableNodes,2,3,27,0,25,6,0,1,1,7.5,0.0
418,GenerateNodeContext,3,3,3,0,3,0,0,3,1,11.333333333333334,0.0
419,PeepholeOptimizationsPass,10,4,39,1,57,12,0,8,2,11.3,1.0
420,ScopeState,1,2,1,0,2,0,0,0,0,5.0,0.0
421,StateStack,3,2,7,0,8,1,0,1,0,3.6666666666666665,0.0
422,PeepholeChangeHandler,1,0,2,1,1,0,0,0,0,12.0,0.0
423,JvmMetrics,10,4,136,0,135,32,0,7,1,18.3,0.0
424,ByPathWarningsGuard,4,5,5,0,12,3,0,5,3,8.25,0.0
425,DefaultPassConfig,20,120,341,0,377,104,2,21,11,19.15,0.0
426,GlobalTypeResolver,2,1,7,1,6,1,0,0,1,10.0,0.0
427,ClearTypedScope,1,0,2,1,1,0,0,0,1,7.0,0.0
428,HotSwapPassFactory,2,0,1,0,1,0,0,1,1,10.0,0.0
429,FunctionNames,4,4,23,2,21,4,0,5,1,13.5,0.0
430,FunctionRecord,0,4,0,1,0,0,0,0,0,0.0,0.0
431,FunctionListExtractor,1,2,6,0,4,1,0,0,0,5.0,0.0
432,FunctionExpressionNamer,3,3,3,1,5,0,0,2,0,12.333333333333334,0.0
433,AbstractCommandLineRunner,54,19,429,0,618,153,32,61,46,18.444444444444443,1.0
434,FlagUsageException,0,1,0,0,0,0,0,0,1,0.0,0.0
435,RunTimeStats,3,4,10,0,16,2,1,0,3,16.333333333333332,0.0
436,CommandLineConfig,42,42,29,0,97,2,0,42,43,18.428571428571427,0.0
437,WarningGuardSpec,2,1,3,0,2,0,0,0,1,4.0,0.0
438,Entry,0,2,0,0,0,0,0,0,0,0.0,0.0
439,ClosureCodeRemoval,1,6,51,1,22,6,0,0,1,7.0,0.0
440,RemovableAssignment,1,4,14,0,10,2,0,0,2,6.0,0.0
441,FindAbstractMethods,1,0,10,0,5,2,0,0,1,5.0,0.0
442,FindAssertionCalls,1,1,11,0,5,2,0,0,1,5.0,0.0
443,OptimizeReturns,5,1,40,2,44,13,0,7,4,10.8,0.0
444,CheckRegExp,3,4,23,1,16,4,0,1,1,13.333333333333334,0.0
445,ControlFlowAnalysis,38,12,356,2,387,75,1,76,15,13.605263157894736,1.0
446,AstControlFlowGraph,2,1,7,0,9,1,0,5,2,18.0,0.0
447,NameReferenceGraphReport,8,1,106,0,77,11,0,3,9,19.5,0.0
448,DiGraphNodeComparator,1,0,18,1,12,3,0,4,1,7.0,0.0
449,AnalyzePrototypeProperties,3,14,217,1,14,2,0,3,3,13.0,1.0
450,ProcessProperties,28,2,300,2,288,80,0,25,18,14.0,0.0
451,ProcessExternProperties,1,0,6,0,3,1,0,0,0,5.0,0.0
452,PropagateReferences,2,0,16,2,16,4,0,6,0,12.0,0.0
453,GlobalFunction,4,3,19,1,13,2,0,4,1,10.0,0.0
454,AssignmentProperty,6,3,13,1,6,0,0,5,1,9.666666666666666,0.0
455,LiteralProperty,5,6,7,1,5,0,0,4,1,9.0,0.0
456,NameContext,0,2,0,0,0,0,0,0,1,0.0,0.0
457,NameInfo,9,7,3,1,37,8,0,9,9,16.666666666666668,0.0
458,PeepholeFoldConstants,35,8,453,0,664,129,5,185,20,17.457142857142856,1.0
459,AbstractCompiler,51,2,1,1,2,0,0,1,52,16.764705882352942,0.0
460,UseSite,2,3,3,0,2,0,0,2,1,7.0,0.0
461,RescopeGlobalSymbols,2,6,91,1,9,1,0,0,1,20.0,0.0
462,RewriteGlobalFunctionStatementsToVarAssignmentsCallback,1,0,11,0,10,2,0,0,1,5.0,0.0
463,RewriteScopeCallback,2,0,32,0,30,8,0,6,1,9.0,0.0
464,RemoveGlobalVarCallback,2,0,24,0,25,7,0,2,1,8.0,0.0
465,MakeExternsReferenceWindowExplicitly,1,0,15,0,7,2,0,1,1,5.0,0.0
466,XtbMessageBundle,4,3,49,1,11,0,0,4,1,12.5,0.0
467,Handler,11,8,37,1,29,7,0,0,1,14.636363636363637,0.0
468,SecureEntityResolver,1,0,1,1,1,0,0,1,1,13.0,0.0
469,CoalesceVariableNames,7,4,159,2,114,34,0,10,2,15.285714285714286,1.0
470,CombinedLiveRangeChecker,2,2,7,0,9,2,0,2,1,10.5,0.0
471,LiveRangeChecker,5,4,26,0,20,5,0,7,1,8.4,0.0
472,NameGenerator,4,7,20,0,39,12,2,5,4,13.0,0.0
473,CheckPathsBetweenNodes,8,11,41,0,69,18,0,11,5,18.5,0.0
474,MethodCompilerPass,5,5,83,1,19,3,0,1,4,14.6,1.0
475,GetExternMethods,1,0,29,0,24,4,0,1,1,5.0,0.0
476,GatherSignatures,2,0,32,0,25,5,1,0,2,13.5,0.0
477,EmptyMessageBundle,3,0,4,1,3,0,0,3,4,11.666666666666666,0.0
478,AnalyzeNameReferences,3,3,23,1,10,1,0,2,1,7.333333333333333,0.0
479,PropagateReferences,1,0,10,1,8,2,0,3,0,12.0,0.0
480,NameInfo,3,2,1,1,17,4,0,3,3,16.666666666666668,0.0
481,RemoveUnusedClassProperties,5,4,54,2,46,12,1,4,2,11.6,0.0
482,VarCheck,6,11,87,1,64,16,1,6,4,17.0,1.0
483,NameRefInExternsCheck,1,0,18,0,16,4,0,0,1,5.0,0.0
484,CompilerInput,28,8,111,2,69,6,1,21,15,11.821428571428571,0.0
485,DepsFinder,2,3,13,0,16,5,0,2,0,10.5,0.0
486,ConvertToDottedProperties,2,1,18,1,14,2,0,0,1,6.0,0.0
487,FieldCleanupPass,2,1,23,1,1,0,0,0,1,10.0,0.0
488,QualifiedNameSearchTraversal,3,2,19,0,14,4,0,2,2,10.333333333333334,0.0
489,DiagnosticGroup,6,4,18,1,14,3,0,7,6,7.833333333333333,0.0
490,SymbolTable,48,11,506,1,325,92,2,62,32,16.895833333333332,0.0
491,Symbol,18,15,40,0,32,4,0,13,5,13.5,0.0
492,Reference,25,15,57,1,28,1,0,24,8,0.0,0.0
493,SymbolScope,15,7,39,1,33,6,0,19,3,12.933333333333334,0.0
494,PropertyRefCollector,6,1,49,1,58,18,0,11,0,20.166666666666668,0.0
495,ThisRefCollector,4,2,35,1,27,8,0,1,0,7.75,0.0
496,JSDocInfoCollector,2,1,20,0,17,6,0,0,1,9.0,0.0
497,PrepareAst,4,2,60,1,32,9,0,0,3,13.0,1.0
498,PrepareAnnotations,6,0,37,1,31,7,0,1,4,20.0,0.0
499,ControlStructureCheck,4,2,16,1,12,2,0,0,2,7.75,0.0
500,ClosureRewriteClass,16,7,176,1,131,33,0,22,4,16.25,0.0
501,MemberDefinition,0,3,0,0,0,0,0,0,0,0.0,0.0
502,ClassDefinition,0,6,0,0,0,0,0,0,0,0.0,0.0
503,ReplaceMessagesForChrome,4,0,38,0,31,7,1,4,1,19.25,0.0
504,ProcessDefines,6,10,129,1,47,12,0,4,4,12.333333333333334,0.0
505,CollectDefines,8,6,76,1,72,16,0,6,8,16.75,0.0
506,RefInfo,0,2,0,0,0,0,0,0,1,0.0,0.0
507,DefineInfo,4,5,4,0,6,0,0,3,5,17.25,0.0
508,RecentChange,3,1,1,1,3,0,0,1,1,10.333333333333334,0.0
509,ForbiddenChange,1,0,1,1,1,0,1,0,1,12.0,0.0
510,PreprocessorSymbolTable,9,3,23,2,13,1,0,8,1,11.22222222222222,0.0
511,Reference,25,15,57,1,28,1,0,24,8,0.0,0.0
512,MarkNoSideEffectCalls,3,3,42,1,11,1,0,4,3,22.33333333333333,0.0
513,GatherNoSideEffectFunctions,1,1,23,0,26,9,0,0,1,5.0,0.0
514,SetNoSideEffectCallProperty,1,1,10,0,13,4,0,3,1,5.0,0.0
515,PrintStreamErrorManager,3,3,17,0,9,2,0,0,1,13.333333333333334,0.0
516,CodePrinter,1,1,88,0,10,2,0,1,2,8.0,1.0
517,MappedCodePrinter,9,8,27,0,46,11,1,8,5,15.0,0.0
518,Mapping,0,3,0,0,0,0,0,0,1,0.0,0.0
519,PrettyCodePrinter,16,2,33,0,57,8,0,8,6,12.5625,0.0
520,CompactCodePrinter,6,6,20,0,55,10,0,1,3,12.166666666666666,0.0
521,Builder,30,15,54,0,74,7,2,30,23,11.133333333333333,0.0
522,TypeCheck,39,50,692,2,625,142,0,31,31,15.794871794871796,1.0
523,PeepholeFoldWithTypes,2,0,21,0,33,9,0,4,2,14.0,0.0
524,PassConfig,17,4,36,0,43,8,1,8,16,17.176470588235293,0.0
525,PassConfigDelegate,6,1,6,0,6,0,0,5,1,16.0,0.0
526,State,0,10,0,1,0,0,0,0,1,0.0,0.0
527,AbstractPeepholeOptimization,13,1,22,0,24,3,0,8,14,17.076923076923077,0.0
528,RenamePrototypes,3,9,107,1,47,13,0,1,4,13.333333333333334,1.0
529,Property,26,26,82,3,122,29,0,32,13,10.166666666666666,0.0
530,ProcessExternedProperties,1,0,7,0,4,1,0,0,1,5.0,0.0
531,ProcessProperties,15,1,143,1,159,41,0,4,12,14.0,0.0
532,RhinoErrorReporter,6,8,35,0,12,2,0,5,2,12.333333333333334,0.0
533,OldRhinoErrorReporter,2,0,2,1,2,0,0,0,0,6.0,0.0
534,NewRhinoErrorReporter,5,0,11,1,13,2,0,1,0,7.2,0.0
535,NameReferenceGraph,6,6,58,1,31,6,0,7,2,14.666666666666666,0.0
536,Name,46,23,82,1,151,25,2,47,11,13.4,0.0
537,Reference,25,15,57,1,28,1,0,24,8,0.0,0.0
538,UnreachableCodeElimination,4,3,66,2,7,1,0,0,1,7.75,1.0
539,EliminationPass,4,1,49,0,65,17,0,14,1,20.25,0.0
540,ReplaceCssNames,2,10,68,1,3,0,0,1,1,12.0,0.0
541,Traversal,39,9,410,2,405,104,1,46,11,5.0,0.0
542,ObjectPropertyStringPostprocess,1,1,26,1,1,0,0,0,1,7.0,0.0
543,Callback,5,0,84,0,77,19,0,16,0,12.0,0.0
544,DefinitionSite,0,5,0,0,0,0,0,0,1,0.0,0.0
545,GroupVariableDeclarations,6,1,44,2,45,12,0,4,2,10.5,0.0
546,Strings,3,0,11,0,14,4,0,6,4,22.33333333333333,0.0
547,CheckRequiresForConstructors,4,4,76,1,9,2,0,3,2,13.0,0.0
548,CheckRequiresForConstructorsCallback,5,3,61,1,56,13,0,4,1,11.8,0.0
549,MemoizedScopeCreator,7,2,23,2,20,4,0,6,2,14.857142857142858,0.0
550,GatherRawExports,4,3,19,1,19,6,0,4,1,13.5,0.0
551,ExpressionDecomposer,26,6,217,0,215,42,4,30,25,19.0,0.0
552,DecompositionState,0,2,0,0,0,0,0,0,1,0.0,0.0
553,JSModuleGraph,15,3,136,0,130,35,0,18,14,18.133333333333333,0.0
554,InverseDepthComparator,1,0,2,1,1,0,0,1,1,7.0,0.0
555,ModuleDependenceException,2,3,2,0,2,0,0,2,0,13.5,0.0
556,InlineFunctions,19,9,298,1,166,49,1,20,17,20.68421052631579,1.0
557,FindCandidateFunctions,4,1,38,1,33,8,0,2,2,15.0,0.0
558,CallVisitor,1,3,17,0,22,7,0,0,1,5.0,0.0
559,FindCandidatesReferences,5,0,35,1,43,12,0,6,2,15.0,0.0
560,Inline,2,2,17,1,14,4,0,0,2,13.5,0.0
561,FunctionState,26,10,44,0,49,8,0,18,1,14.5,0.0
562,NamedFunction,4,1,9,1,4,0,0,3,1,11.25,0.0
563,FunctionVar,4,1,11,1,4,0,0,3,1,11.25,0.0
564,FunctionExpression,4,2,5,1,3,0,0,3,1,11.25,0.0
565,Reference,19,11,51,1,22,1,0,20,6,0.0,0.0
566,ShadowVariables,1,7,68,1,5,1,0,0,1,7.0,0.0
567,GatherReferenceInfo,1,0,21,0,21,7,0,4,0,5.0,0.0
568,DoShadowVariables,5,0,44,1,56,18,0,4,1,9.2,0.0
569,GlobalNamespace,18,9,210,2,34,3,0,15,9,12.72222222222222,1.0
570,NodeFilter,1,1,7,1,9,3,0,3,1,5.0,0.0
571,BuildGlobalNamespace,14,1,120,1,217,41,1,37,13,15.714285714285714,0.0
572,Name,25,16,38,1,119,21,2,31,5,13.4,0.0
573,Ref,10,8,10,1,12,0,0,9,2,10.9,0.0
574,Tracker,1,4,14,1,19,7,0,0,1,7.0,0.0
575,ClosureOptimizePrimitives,3,1,34,1,30,7,0,3,3,18.0,0.0
576,FindObjectCreateCalls,1,1,8,0,5,2,0,0,1,5.0,0.0
577,FunctionTypeBuilder,20,32,228,0,259,71,1,27,18,17.2,1.0
578,ExtendedTypeValidator,1,0,9,1,18,4,0,5,0,5.0,0.0
579,ImplementedTypeValidator,1,0,8,1,18,4,0,5,0,5.0,0.0
580,UnknownFunctionContents,8,1,10,1,8,0,0,8,0,16.875,0.0
581,AstFunctionContents,11,5,20,1,17,2,0,7,0,19.63636363636364,0.0
582,DotFormatter,12,8,91,0,88,14,0,9,7,9.5,0.0
583,CrossModuleCodeMotion,8,5,113,1,116,35,0,21,7,13.125,0.0
584,NamedInfo,3,4,3,0,15,3,0,4,3,15.333333333333334,0.0
585,Declaration,0,2,0,0,0,0,0,0,0,0.0,0.0
586,JSSourceFile,10,2,13,1,10,0,0,9,1,10.6,0.0
587,ComposeWarningsGuard,8,6,33,0,51,14,0,12,3,10.0,0.0
588,GuardComparator,1,2,7,2,4,1,0,2,0,7.0,0.0
589,VariableReferenceCheck,2,6,49,1,2,0,0,0,1,10.0,0.0
590,ReferenceCheckingBehavior,2,0,42,1,50,17,0,0,2,11.0,0.0
591,ReplaceMessages,8,3,100,0,91,18,6,10,7,19.0,0.0
592,CleanupPasses,4,4,16,0,7,0,0,3,1,16.25,0.0
593,MemoizedScopeCleanupPass,2,1,13,1,10,4,0,0,1,10.0,0.0
594,InlineVariables,2,4,244,1,6,0,1,3,1,11.5,1.0
595,IdentifyConstants,1,0,2,1,1,0,0,1,1,5.0,0.0
596,IdentifyLocals,1,0,2,1,1,0,0,1,1,5.0,0.0
597,AliasCandidate,0,2,0,0,0,0,0,0,0,0.0,0.0
598,InliningBehavior,31,3,412,2,362,100,1,45,27,18.666666666666668,0.0
599,ProcessCommonJSModules,6,8,113,1,18,2,1,5,4,12.833333333333334,1.0
600,ProcessCommonJsModulesCallback,6,2,81,0,42,8,0,2,6,17.166666666666668,0.0
601,SuffixVarsCallback,1,2,12,0,14,4,0,1,1,5.0,0.0
602,SanityCheck,5,4,32,1,30,6,2,2,4,17.0,0.0
603,SuppressDocWarningsGuard,2,2,17,0,26,10,0,3,1,8.0,0.0
604,PeepholeSubstituteAlternateSyntax,47,10,634,0,676,142,0,128,36,20.148936170212767,1.0
605,AstChangeProxy,6,1,24,0,27,5,0,1,7,13.666666666666666,0.0
606,DiagnosticGroupWarningsGuard,4,3,10,0,11,3,0,5,1,7.0,0.0
607,JqueryCodingConvention,3,3,15,0,5,0,0,3,1,17.666666666666668,0.0
608,InferJSDocInfo,5,2,58,1,66,19,0,5,3,15.8,0.0
609,SpecializeModule,8,5,125,1,68,17,0,5,9,26.625,0.0
610,NodeMatcher,3,0,9,0,9,2,0,1,4,10.0,0.0
611,OriginalFunctionInformation,4,4,22,0,13,1,0,4,4,22.75,0.0
612,SpecializationState,11,5,31,0,40,10,0,13,11,22.363636363636363,0.0
613,SideEffectsAnalysis,9,4,92,1,72,15,1,29,7,17.77777777777778,0.0
614,AbstractMotionEnvironment,1,0,0,0,0,0,0,0,2,20.0,0.0
615,IntraproceduralMotionEnvironment,1,0,1,0,1,0,0,1,1,20.0,0.0
616,CrossModuleMotionEnvironment,1,0,1,0,1,0,0,1,1,20.0,0.0
617,RawMotionEnvironment,1,1,1,0,1,0,0,1,1,20.0,0.0
618,LocationSummary,2,2,2,0,2,0,0,2,0,9.0,0.0
619,LocationAbstraction,3,0,8,0,5,1,0,1,4,21.666666666666668,0.0
620,DegenerateLocationAbstraction,4,2,5,0,12,2,0,6,1,17.75,0.0
621,DegenerateEffectLocation,3,0,3,1,7,1,0,4,0,9.666666666666666,0.0
622,VisibilityLocationAbstraction,7,9,30,0,44,7,1,8,7,21.571428571428573,0.0
623,VisibilityBasedEffectLocation,3,1,5,1,5,0,0,3,1,9.666666666666666,0.0
624,VariableUseDeclarationMap,2,2,12,0,9,2,0,1,3,17.0,0.0
625,AmbiguateProperties,10,13,195,1,104,27,1,13,7,15.3,1.0
626,PropertyGraph,5,1,12,1,7,1,0,4,0,11.0,0.0
627,PropertySubGraph,2,1,5,1,2,0,0,1,3,11.0,0.0
628,PropertyGraphNode,3,2,3,1,3,0,0,2,0,11.333333333333334,0.0
629,ProcessExterns,2,0,21,0,16,3,0,0,2,5.0,0.0
630,ProcessProperties,9,1,98,1,112,30,0,3,6,14.0,0.0
631,Property,22,21,66,3,92,20,0,20,12,10.166666666666666,0.0
632,JSTypeBitSet,1,1,9,0,5,1,0,1,1,8.0,0.0
633,Bind,1,3,3,0,4,1,0,2,1,22.0,0.0
634,SubclassRelationship,0,3,2,0,0,0,0,0,0,0.0,0.0
635,DelegateRelationship,0,2,0,0,0,0,0,0,1,0.0,0.0
636,ObjectLiteralCast,0,3,0,0,0,0,0,0,1,0.0,0.0
637,AssertionFunctionSpec,3,2,4,0,3,0,0,3,4,15.333333333333334,0.0
638,SourceFile,30,7,79,2,96,15,1,35,10,11.133333333333333,1.0
639,Builder,23,10,51,0,55,6,0,23,16,11.133333333333333,0.0
640,Preloaded,0,1,0,0,0,0,0,0,1,0.0,0.0
641,Generated,2,2,2,0,6,1,0,1,1,12.0,0.0
642,OnDisk,5,3,12,0,13,2,0,4,4,11.4,0.0
643,LineNumberCheck,4,3,13,2,16,4,0,1,1,10.25,0.0
644,OptimizeCalls,2,2,6,1,8,2,0,1,1,7.0,0.0
645,CrossModuleMethodMotion,2,8,53,1,37,11,0,0,2,9.0,1.0
646,IdGenerator,2,2,0,1,2,0,0,2,2,11.5,0.0
647,Compiler,155,54,737,0,824,154,14,136,77,14.870967741935484,1.0
648,CodeBuilder,7,3,15,0,17,2,0,6,8,8.857142857142858,0.0
649,IntermediateState,0,10,0,1,0,0,0,0,1,0.0,0.0
650,NodeNameExtractor,1,2,27,0,24,4,0,11,2,7.0,0.0
651,TypedCodeGenerator,5,0,104,0,98,27,0,9,3,16.4,0.0
652,TypeInferencePass,4,6,27,1,12,0,0,1,3,10.25,0.0
653,FirstScopeBuildingCallback,2,0,3,0,1,0,0,0,0,7.5,0.0
654,SecondScopeBuildingCallback,2,0,5,0,1,0,0,0,0,7.5,0.0
655,SyntheticAst,5,4,9,1,7,0,1,3,1,10.8,0.0
656,CombinedCompilerPass,7,2,27,2,20,5,0,1,1,9.428571428571429,0.0
657,CallbackWrapper,5,3,8,0,16,5,0,1,2,17.0,0.0
658,RuntimeTypeCheck,3,3,132,1,8,1,0,1,1,10.333333333333334,1.0
659,AddMarkers,6,1,41,0,31,7,0,7,2,17.0,0.0
660,AddChecks,5,0,67,0,62,16,0,10,4,13.8,0.0
661,VariableMap,14,3,55,0,58,10,4,13,11,11.571428571428571,0.0
662,MustBeReachingVariableDef,12,3,124,0,115,31,0,19,5,14.833333333333334,1.0
663,Definition,6,4,5,0,10,2,1,3,6,9.0,0.0
664,MustDef,1,1,7,1,1,0,0,1,1,6.0,0.0
665,MustDefJoin,1,0,16,0,21,6,0,1,0,5.0,0.0
666,StripCode,2,8,138,1,2,0,0,0,2,13.5,0.0
667,Strip,18,0,128,0,153,37,0,18,18,26.33333333333333,0.0
668,TransformAMDToCJSModule,3,6,117,1,3,0,0,1,2,16.0,0.0
669,TransformAMDModulesCallback,6,0,93,0,90,22,0,11,6,18.5,0.0
670,DefineCallbackReturnCallback,1,0,12,0,4,1,0,0,1,5.0,0.0
671,RenameCallback,1,2,6,0,4,1,0,0,1,5.0,0.0
672,PeepholeCollectPropertyAssignments,9,0,96,0,132,37,3,31,1,17.555555555555557,0.0
673,CheckProvides,2,4,36,1,2,0,0,0,1,10.0,0.0
674,CheckProvidesCallback,3,3,31,0,37,9,0,0,0,12.333333333333334,0.0
675,ScopedAliases,2,11,161,1,22,6,0,0,1,10.0,1.0
676,AliasedNode,1,2,4,1,1,0,0,0,0,10.0,0.0
677,AliasedTypeNode,1,3,8,1,2,0,0,0,0,10.0,0.0
678,Traversal,37,9,351,2,348,92,0,43,10,5.0,0.0
679,JsMessage,14,11,76,0,32,5,0,17,10,8.285714285714286,0.0
680,PlaceholderReference,7,1,13,1,7,0,0,7,1,7.428571428571429,0.0
681,Builder,15,8,38,0,45,6,0,15,13,11.133333333333333,0.0
682,Hash,6,2,12,0,114,2,0,7,6,6.166666666666667,0.0
683,ConcreteType,22,5,188,1,76,14,0,39,22,12.136363636363637,0.0
684,TypeFilter,1,1,0,0,0,0,0,0,1,6.0,0.0
685,ConcreteNoneType,4,0,1,0,4,0,0,4,1,9.0,0.0
686,ConcreteFunctionType,14,9,68,0,50,11,0,15,13,12.642857142857142,0.0
687,ConcreteInstanceType,9,4,23,0,31,7,0,13,7,15.0,0.0
688,ConcreteUnionType,8,1,39,0,46,9,0,16,2,9.125,0.0
689,ConcreteAll,4,0,1,0,4,0,0,4,1,8.75,0.0
690,ConcreteUniqueType,3,1,5,0,3,0,0,3,1,7.333333333333333,0.0
691,GatherSideEffectSubexpressionsCallback,7,3,95,1,57,13,1,17,7,17.0,0.0
692,GetReplacementSideEffectSubexpressions,5,2,41,1,35,6,2,2,1,26.8,0.0
693,NodeIterators,0,0,59,0,0,0,0,0,1,0.0,0.0
694,FunctionlessLocalScope,6,1,29,1,26,5,1,8,4,8.833333333333334,0.0
695,LocalVarMotion,6,4,36,1,42,10,1,9,3,8.0,0.0
696,PureFunctionIdentifier,9,8,297,1,152,40,1,21,7,15.444444444444445,1.0
697,FunctionAnalyzer,13,1,128,1,162,41,1,15,10,17.384615384615383,0.0
698,SideEffectPropagationCallback,1,0,25,1,32,10,0,1,1,12.0,0.0
699,FunctionInformation,19,12,29,0,48,7,1,7,18,14.789473684210526,0.0
700,Driver,1,3,7,1,14,2,1,0,1,7.0,0.0
701,CallGraph,21,9,117,1,147,39,1,19,20,20.666666666666668,0.0
702,Function,10,5,17,0,37,7,1,12,9,18.1,0.0
703,Callsite,6,5,8,0,18,3,1,6,4,16.166666666666668,0.0
704,LoggerErrorManager,2,2,18,0,13,2,0,0,1,9.5,0.0
705,CheckAccessControls,24,20,251,2,232,72,0,39,19,19.041666666666668,1.0
706,NameAnalyzer,25,17,534,1,319,71,3,43,22,16.8,1.0
707,AliasSet,0,1,3,0,0,0,0,0,1,0.0,0.0
708,ReferencePropagationCallback,1,0,1,1,6,1,0,2,1,12.0,0.0
709,NameInformation,0,7,0,0,0,0,0,0,1,0.0,0.0
710,JsName,2,6,15,1,13,3,0,2,2,8.5,0.0
711,JsNameRefNode,2,3,13,1,14,1,0,1,1,5.0,0.0
712,PrototypeSetNode,1,0,11,0,5,1,0,0,1,6.0,0.0
713,SpecialReferenceNode,3,2,5,1,3,0,0,3,1,7.333333333333333,0.0
714,ClassDefiningFunctionNode,1,0,12,0,6,1,0,0,1,6.0,0.0
715,InstanceOfCheckNode,1,0,10,0,1,0,0,0,1,6.0,0.0
716,ProcessExternals,1,0,8,0,10,3,0,0,1,5.0,0.0
717,FindDependencyScopes,4,0,41,0,47,12,0,1,2,12.5,0.0
718,HoistVariableAndFunctionDeclarations,1,0,11,0,8,2,0,0,1,5.0,0.0
719,FindDeclarationsAndSetters,4,0,41,0,51,15,0,2,4,13.75,0.0
720,FindReferences,9,1,115,1,127,37,0,12,3,16.555555555555557,0.0
721,NodeAccumulator,4,0,15,1,11,2,0,1,1,27.0,0.0
722,RemoveListener,1,0,2,1,1,0,0,0,0,11.0,0.0
723,PerformanceTracker,9,10,106,0,119,18,1,3,4,15.11111111111111,0.0
724,Stats,0,8,0,0,0,0,0,0,0,0.0,0.0
725,CmpEntries,1,0,3,1,1,0,0,1,0,7.0,0.0
726,CodeSizeEstimatePrinter,4,5,8,0,23,3,2,4,1,9.75,0.0
727,SimpleFunctionAliasAnalysis,4,2,30,0,29,8,0,2,5,14.5,0.0
728,CheckMissingGetCssName,6,6,37,1,30,8,0,7,4,14.833333333333334,0.0
729,ByPart,2,0,1,1,1,0,0,1,0,5.5,0.0
730,ByWhole,2,0,1,1,1,0,0,1,0,5.5,0.0
731,ErrorPass,1,2,3,1,1,0,0,0,1,7.0,0.0
732,SourceInformationAnnotator,2,2,20,0,21,5,0,0,1,10.0,0.0
733,MoveFunctionDeclarations,3,2,22,2,19,5,0,2,1,8.666666666666666,0.0
734,StrictWarningsGuard,2,2,5,0,5,1,0,3,1,8.0,0.0
735,NameReferenceGraphConstruction,7,5,222,1,40,10,1,4,5,17.0,0.0
736,Traversal,21,1,234,1,217,53,0,31,8,5.0,0.0
737,NameUse,0,2,0,0,0,0,0,0,0,0.0,0.0
738,ExportTestFunctions,4,4,53,1,12,1,0,1,2,18.75,0.0
739,ExportTestFunctionsNodes,2,0,25,0,26,10,0,3,1,13.0,0.0
740,AstValidator,64,1,390,1,405,47,0,40,1,17.296875,0.0
741,ChainCalls,1,6,45,1,9,1,0,0,1,7.0,0.0
742,GatherFunctions,4,0,17,1,8,2,0,2,1,9.5,0.0
743,GatherCallSites,1,0,23,0,42,14,0,12,1,5.0,0.0
744,CallSite,0,5,0,0,0,0,0,0,1,0.0,0.0
745,InlineSimpleMethods,12,2,73,0,56,13,0,17,11,17.0,0.0
746,InlineTrivialAccessors,1,0,24,0,26,8,0,2,1,5.0,0.0
747,MaybeReachingVariableUse,9,2,73,0,71,15,0,16,4,15.555555555555555,1.0
748,ReachingUses,2,1,5,1,2,0,0,2,1,7.0,0.0
749,ReachingUsesJoinOp,1,0,2,1,4,1,0,1,1,5.0,0.0
750,PeepholeReplaceKnownMethods,17,2,297,0,394,94,0,68,16,19.352941176470587,1.0
751,DevirtualizePrototypeMethods,13,2,141,2,147,37,1,29,10,16.923076923076923,1.0
752,TightenTypes,19,8,530,2,231,52,1,29,14,17.05263157894737,0.0
753,ConcreteScope,13,3,31,1,28,3,0,10,8,11.153846153846152,0.0
754,ConcreteSlot,8,3,10,1,9,0,0,8,5,10.625,0.0
755,Assignment,1,6,3,0,2,0,0,0,2,10.0,0.0
756,VariableAssignAction,1,2,5,1,1,0,0,1,1,14.0,0.0
757,PropertyAssignAction,1,3,11,1,4,1,0,1,2,14.0,0.0
758,FunctionCallBuilder,4,5,2,0,13,1,0,5,3,11.25,0.0
759,ExternFunctionCall,1,3,3,1,1,0,0,1,1,14.0,0.0
760,FunctionCall,1,4,14,1,20,6,1,1,1,14.0,0.0
761,NativeCallFunctionCall,1,3,13,1,7,2,0,1,1,14.0,0.0
762,CreateScope,11,2,227,0,181,48,1,21,5,19.454545454545453,0.0
763,ConcreteJSTypePair,4,3,8,0,13,3,0,6,1,10.75,0.0
764,CreateSyntheticBlocks,5,8,53,1,28,5,0,4,5,12.4,0.0
765,Marker,10,7,5,0,10,0,0,5,6,10.4,0.0
766,Callback,4,0,59,0,57,15,0,14,0,12.0,0.0
767,NodeTraversal,36,12,164,0,175,26,0,29,26,12.805555555555555,1.0
768,AbstractPostOrderCallback,1,0,0,1,1,0,0,1,1,14.0,0.0
769,AbstractScopedCallback,3,0,2,1,1,0,0,1,1,11.0,0.0
770,AbstractShallowCallback,1,0,2,1,1,0,0,1,1,14.0,0.0
771,AbstractShallowStatementCallback,1,0,2,1,1,0,0,1,1,14.0,0.0
772,AbstractNodeTypePruningCallback,1,2,3,1,1,0,0,1,1,14.0,0.0
773,PhaseOptimizer,14,17,67,1,63,11,1,5,13,11.714285714285714,0.0
774,NamedPass,1,2,7,1,4,0,0,0,1,7.0,0.0
775,Loop,5,2,30,1,61,14,0,3,4,12.2,0.0
776,ProgressRange,0,2,0,0,0,0,0,0,0,0.0,0.0
777,CheckMissingReturn,8,5,45,1,31,9,0,12,5,14.125,0.0
778,CheckDebuggerStatement,2,2,6,1,4,1,0,0,1,6.0,0.0
779,InlineCostEstimator,2,2,11,0,3,0,0,2,3,7.0,1.0
780,CompiledSizeEstimator,7,4,7,0,11,1,0,3,2,9.857142857142858,0.0
781,IgnoreCajaProperties,1,2,33,1,1,0,0,0,1,7.0,0.0
782,Traversal,1,0,32,0,12,2,0,0,0,5.0,0.0
783,AnonymousFunctionNamingCallback,2,1,29,0,25,9,0,0,1,14.5,0.0
784,AliasStrings,9,11,86,1,81,20,0,9,8,18.444444444444443,0.0
785,StringOccurrence,0,2,0,0,0,0,0,0,1,0.0,0.0
786,StringInfo,2,9,19,0,30,7,0,3,3,19.5,0.0
787,DisambiguateProperties,10,7,350,1,87,22,0,7,7,17.0,1.0
788,Warnings,0,1,1,0,0,0,0,0,0,0.0,0.0
789,Property,20,16,51,3,70,14,0,17,10,10.166666666666666,0.0
790,AbstractScopingCallback,4,1,11,1,8,1,0,2,2,10.25,0.0
791,FindExternProperties,1,0,15,0,11,3,0,0,1,5.0,0.0
792,FindRenameableProperties,5,0,64,0,67,21,0,7,4,13.4,0.0
793,JSTypeSystem,13,2,104,1,112,31,0,23,1,18.46153846153846,0.0
794,ConcreteTypeSystem,14,5,70,1,72,20,0,25,2,17.5,0.0
795,CollapseAnonymousFunctions,1,1,39,1,1,0,0,0,1,7.0,0.0
796,Callback,3,0,35,0,30,8,0,7,0,12.0,0.0
797,WhitelistWarningsGuard,11,3,71,0,41,8,1,12,8,15.363636363636363,0.0
798,WhitelistBuilder,7,4,34,1,30,6,0,4,6,13.0,0.0
799,AstParallelizer,6,7,41,0,35,5,0,9,4,16.666666666666668,0.0
800,DetachPoint,1,3,10,0,9,2,0,0,1,8.0,0.0
801,DefinitionsRemover,2,0,77,0,48,16,0,16,3,14.5,0.0
802,Definition,5,1,3,0,6,1,1,1,5,9.0,0.0
803,IncompleteDefinition,2,2,9,0,2,0,0,2,1,9.0,0.0
804,UnknownDefinition,1,0,1,0,1,0,1,0,1,13.0,0.0
805,ExternalNameOnlyDefinition,1,0,1,0,1,0,1,0,1,13.0,0.0
806,FunctionArgumentDefinition,1,0,5,0,1,0,1,0,1,13.0,0.0
807,FunctionDefinition,2,1,5,0,2,0,0,2,1,9.0,0.0
808,NamedFunctionDefinition,1,0,2,0,1,0,0,0,1,13.0,0.0
809,FunctionExpressionDefinition,1,0,6,0,1,0,0,0,1,13.0,0.0
810,AssignmentDefinition,3,1,11,0,4,0,0,2,1,10.333333333333334,0.0
811,ObjectLiteralPropertyDefinition,3,3,9,0,5,0,1,2,1,10.333333333333334,0.0
812,VarDefinition,3,1,19,0,5,0,0,2,1,10.333333333333334,0.0
813,OptimizeArgumentsArray,7,7,61,2,66,17,0,9,3,10.571428571428571,0.0
814,VariableNameGenerator,1,2,3,0,3,1,0,1,1,14.0,0.0
815,LinkedFlowScope,17,7,117,1,101,31,1,25,10,13.176470588235292,0.0
816,FlowScopeJoinOp,1,0,4,0,6,1,0,2,1,5.0,0.0
817,LinkedFlowSlot,0,1,0,0,0,0,0,0,1,0.0,0.0
818,FlatFlowScopeCache,1,4,36,0,5,1,0,2,2,7.0,0.0
819,ConstCheck,4,3,36,1,33,8,0,1,3,8.25,0.0
820,BasicErrorManager,11,4,23,1,24,6,0,6,3,11.272727272727272,0.0
821,LeveledJSErrorComparator,1,2,6,1,40,13,0,13,1,7.0,0.0
822,ErrorWithLevel,0,2,0,0,0,0,0,0,0,0.0,0.0
823,DeadAssignmentsElimination,10,3,139,2,166,43,0,30,5,18.1,1.0
824,Scope,26,7,85,2,57,8,0,31,17,11.692307692307692,1.0
825,Var,30,9,40,2,38,3,0,28,21,11.066666666666666,0.0
826,Arguments,2,0,5,0,5,1,0,3,1,7.0,0.0
827,PassFactory,4,2,0,0,3,0,0,3,5,10.0,0.0
828,Denormalize,4,1,41,2,36,9,0,5,2,14.0,0.0
829,StripConstantAnnotations,2,1,8,1,5,1,0,0,0,6.0,0.0
830,ReferenceCollectingCallback,11,6,151,3,41,8,0,7,10,10.818181818181818,1.0
831,ReferenceMapWrapper,1,1,2,1,1,0,0,1,0,13.0,0.0
832,ReferenceCollection,12,1,44,1,82,25,0,25,10,20.33333333333333,0.0
833,Reference,19,9,51,1,22,1,0,20,6,0.0,0.0
834,BasicBlock,3,4,9,0,14,4,0,6,3,16.333333333333332,0.0
835,NameAnonymousFunctionsMapped,2,9,22,1,6,1,0,1,2,10.5,0.0
836,MappedFunctionNamer,4,1,11,1,17,3,0,4,1,13.25,0.0
837,JsMessageVisitor,24,26,230,1,271,66,19,28,23,21.70833333333333,0.0
838,MalformedException,1,2,0,0,1,0,0,1,0,7.0,0.0
839,MessageLocation,0,2,0,0,0,0,0,0,0,0.0,0.0
840,OptimizeParameters,17,2,135,2,183,47,0,24,12,19.058823529411764,0.0
841,Parameter,7,4,7,0,7,0,0,4,1,14.428571428571429,0.0
842,CodeConsumer,34,3,67,0,98,20,0,6,11,12.205882352941176,1.0
843,TypedScopeCreator,8,17,749,1,74,11,0,5,4,18.5,1.0
844,DeferredSetType,1,2,5,0,1,0,0,0,1,7.0,0.0
845,DiscoverEnumsAndTypedefs,2,1,22,0,21,6,0,0,0,10.5,0.0
846,AbstractScopeBuilder,32,7,517,1,449,128,0,32,24,19.0625,0.0
847,CollectProperties,2,1,23,0,14,3,0,1,1,11.5,0.0
848,StubDeclaration,0,3,0,0,0,0,0,0,1,0.0,0.0
849,GlobalScopeBuilder,3,0,20,0,22,5,0,2,3,15.0,0.0
850,LocalScopeBuilder,4,0,51,0,50,17,0,2,5,11.5,0.0
851,FirstOrderFunctionAnalyzer,3,2,44,1,34,12,0,2,1,7.333333333333333,0.0
852,RenameVars,10,21,114,1,100,24,1,9,7,16.0,1.0
853,Assignment,1,4,1,0,2,0,0,0,1,10.0,0.0
854,ProcessVars,4,1,40,1,53,16,0,7,1,8.0,0.0
855,ProcessTweaks,6,13,141,1,50,13,0,4,6,23.5,0.0
856,CollectTweaksResult,0,2,0,0,0,0,0,0,0,0.0,0.0
857,CollectTweaks,1,2,41,0,44,10,0,4,1,5.0,0.0
858,TweakFunctionCall,1,4,2,0,1,0,0,1,1,9.0,0.0
859,TweakInfo,8,4,25,0,34,9,0,4,4,17.75,0.0
860,FunctionInjector,18,9,164,0,221,57,4,53,18,20.666666666666668,1.0
861,Reference,0,3,0,0,0,0,0,0,1,0.0,0.0
862,ControlFlowGraph,6,2,17,0,16,1,0,11,7,18.166666666666668,0.0
863,AbstractCfgNodeTraversalCallback,1,0,1,1,4,1,0,2,1,14.0,0.0
864,ExpandJqueryAliases,10,9,274,1,178,47,0,15,4,21.7,0.0
865,FindCallbackArgumentReferences,4,5,28,1,15,5,0,1,2,8.5,0.0
866,ProcessClosurePrimitives,21,23,422,1,310,86,0,26,18,20.19047619047619,1.0
867,ProvidedName,13,8,94,0,97,17,0,11,10,16.923076923076923,0.0
868,UnrecognizedRequire,0,3,0,0,0,0,0,0,1,0.0,0.0
869,CheckGlobalThis,4,3,41,1,51,18,0,9,3,13.75,1.0
870,WarningsGuard,4,0,0,1,3,0,0,3,5,7.75,0.0
871,FlowSensitiveInlineVariables,6,7,139,2,40,11,0,6,3,9.0,1.0
872,GatherCandiates,1,0,19,0,18,6,0,4,1,5.0,0.0
873,Candidate,5,6,71,0,81,21,0,20,4,14.0,0.0
874,NameAnonymousFunctions,1,5,11,1,2,0,0,0,1,7.0,0.0
875,AnonymousFunctionNamer,4,1,6,1,7,0,0,3,2,16.0,0.0
876,SimpleRegion,3,3,3,1,3,0,0,3,1,19.0,0.0
877,CheckGlobalNames,9,9,85,1,86,28,0,9,4,18.22222222222222,0.0
878,InvocationsCallback,2,0,9,0,10,3,0,3,2,5.0,0.0
879,AbstractMessageFormatter,5,3,8,1,10,1,0,7,2,12.4,0.0
880,ExtractPrototypeMemberDeclarations,4,3,75,1,30,8,0,0,4,16.75,0.0
881,GatherExtractionInfo,2,2,10,0,14,4,0,2,2,9.0,0.0
882,ExtractionInstance,1,3,8,0,1,0,0,1,1,11.0,0.0
883,PrototypeMemberDeclaration,2,4,7,0,5,1,0,3,2,14.5,0.0
884,Result,1,16,5,0,1,0,0,0,2,11.0,0.0
885,CodeGenerator,32,8,515,0,674,100,9,28,16,15.0625,1.0
886,ReplaceStrings,17,12,133,1,129,27,0,21,13,15.411764705882351,0.0
887,Config,1,9,6,0,7,2,0,1,3,20.0,0.0
888,Result,1,3,5,0,1,0,0,0,1,11.0,0.0
889,Location,0,3,0,0,0,0,0,0,1,0.0,0.0
890,ShowByPathWarningsGuard,2,2,8,0,2,0,0,2,1,8.0,0.0
891,CollapseProperties,22,8,291,1,299,84,0,10,20,26.227272727272727,1.0
892,FunctionArgumentInjector,11,1,129,0,115,29,0,13,11,21.727272727272727,0.0
893,ReferencedAfterSideEffect,6,5,26,2,46,15,0,6,3,9.666666666666666,0.0
894,TypeInference,49,9,557,0,537,127,0,59,18,18.897959183673468,1.0
895,TemplateTypeReplacer,1,3,3,0,2,0,0,1,0,16.0,0.0
896,BooleanOutcomePair,2,5,2,0,13,3,0,3,3,18.5,0.0
897,RemoveUnusedPrototypeProperties,4,5,18,1,44,12,0,3,3,20.0,0.0
898,RecordFunctionInformation,4,4,41,1,26,5,0,4,3,9.5,0.0
899,LightweightMessageFormatter,4,2,52,0,30,6,0,4,1,10.75,1.0
900,LineNumberingFormatter,2,0,27,1,32,6,0,5,1,11.0,0.0
901,RemoveUnusedNames,2,3,14,1,11,3,0,0,2,14.5,0.0
902,CodingConventions,1,0,64,0,1,0,0,1,2,10.0,0.0
903,Proxy,33,1,65,1,33,0,0,28,1,21.151515151515152,0.0
904,DefaultCodingConvention,34,1,64,1,52,8,2,32,1,20.764705882352946,0.0
905,GlobalVarReferenceMap,7,2,71,1,64,16,0,6,5,21.428571428571427,0.0
906,SourceRefRange,2,3,6,0,2,0,0,2,2,9.5,0.0
907,GlobalVarRefCleanupPass,2,1,5,1,3,1,0,0,1,10.0,0.0
908,InlineObjectLiterals,1,3,174,1,1,0,0,0,1,7.0,1.0
909,InliningBehavior,9,1,173,1,147,39,0,11,8,18.666666666666668,0.0
910,FunctionToBlockMutator,14,2,131,0,127,29,0,14,15,21.142857142857142,1.0
911,LabelNameSupplier,1,1,2,1,1,0,0,1,0,3.0,0.0
912,Normalize,5,5,257,1,24,4,1,2,2,21.0,1.0
913,FindExposeAnnotations,2,1,16,0,9,3,0,1,1,9.5,0.0
914,RewriteExposedProperties,1,1,16,0,12,4,0,0,1,5.0,0.0
915,PropagateConstantAnnotationsOverVars,2,2,18,1,15,5,1,1,1,6.0,0.0
916,VerifyConstants,2,3,28,1,33,8,0,1,1,6.0,0.0
917,NormalizeStatements,12,2,118,1,120,24,3,4,10,18.916666666666668,0.0
918,DuplicateDeclarationHandler,2,1,48,1,41,10,1,1,3,19.5,0.0
919,ScopeTicklingCallback,4,0,5,1,2,0,0,1,1,9.5,0.0
920,JSError,16,8,32,0,48,8,0,26,13,8.0,0.0
921,AliasKeywords,9,11,100,1,38,9,0,10,9,17.77777777777778,0.0
922,FindAliasableNodes,3,0,11,0,10,3,1,0,3,12.0,0.0
923,AliasSpecification,8,4,14,0,15,3,0,4,6,16.75,0.0
924,ThrowAliasSpecification,3,0,12,0,4,0,0,1,1,20.0,0.0
925,KeywordAliasSpecification,3,0,13,0,5,0,0,1,1,20.0,0.0
926,VoidKeywordAliasSpecification,4,0,18,0,8,1,0,1,1,16.25,0.0
927,NodeUtil,160,13,885,0,1008,182,10,449,139,16.75,1.0
928,NumbericResultPredicate,1,0,2,1,1,0,0,1,0,5.0,0.0
929,BooleanResultPredicate,1,0,2,1,1,0,0,1,0,5.0,0.0
930,MayBeStringResultPredicate,1,0,2,1,1,0,0,1,0,5.0,0.0
931,VarCollector,1,1,8,1,7,3,0,0,0,5.0,0.0
932,MatchNameNode,1,1,4,1,1,0,0,1,1,5.0,0.0
933,MatchNodeType,1,1,2,1,1,0,0,1,1,5.0,0.0
934,MatchDeclaration,1,0,3,1,1,0,0,1,1,5.0,0.0
935,MatchNotFunction,1,0,2,1,1,0,0,1,1,5.0,0.0
936,MatchShallowStatement,1,0,6,1,1,0,0,1,1,5.0,0.0
937,SourceMap,8,3,42,0,32,7,0,4,3,12.75,1.0
938,LocationMapping,0,2,0,0,0,0,0,0,0,0.0,0.0
939,InlineProperties,5,4,119,1,34,9,0,5,4,15.4,0.0
940,PropertyInfo,0,2,0,0,0,0,0,0,0,0.0,0.0
941,GatherCandidates,6,0,49,0,53,14,0,6,1,19.83333333333333,0.0
942,ReplaceCandidates,2,0,21,0,14,4,0,2,0,9.5,0.0
943,CompilerOptions,209,167,267,2,266,5,4,19,80,21.406698564593302,1.0
944,NullAliasTransformationHandler,1,2,2,2,2,0,0,1,0,22.0,0.0
945,NullAliasTransformation,1,1,1,2,0,0,0,0,0,8.0,0.0
946,ReorderConstantExpression,1,0,17,0,11,3,0,1,1,15.0,0.0
947,GoogleJsMessageIdGenerator,1,1,15,1,9,2,0,1,1,10.0,0.0
948,FP,3,0,4,0,79,2,0,3,3,9.333333333333334,0.0
949,MessageId,1,0,3,0,4,1,0,1,1,10.0,0.0
950,GenerateExports,3,4,58,1,33,8,0,1,2,10.0,0.0
951,GoogleCodingConvention,7,4,27,0,19,4,0,10,6,13.285714285714286,0.0
952,AliasExternals,16,15,205,1,99,23,0,7,12,15.6875,0.0
953,GetAliasableNames,1,1,12,0,4,1,0,0,1,5.0,0.0
954,PropertyGatherer,3,0,29,0,12,3,0,2,3,15.666666666666666,0.0
955,GetGlobals,2,0,20,0,14,4,0,0,1,9.0,0.0
956,GlobalGatherer,1,0,20,0,16,5,0,1,1,5.0,0.0
957,Symbol,2,9,7,0,8,2,0,0,1,13.5,0.0
958,CheckSuspiciousCode,5,2,30,0,20,3,0,0,1,12.2,0.0
959,PeepholeRemoveDeadCode,28,0,377,0,420,83,0,68,27,16.75,0.0
960,InstrumentFunctions,1,10,98,1,18,4,0,1,1,7.0,0.0
961,RemoveCallback,1,1,8,0,8,3,0,0,1,5.0,0.0
962,InstrumentReturns,5,1,26,1,23,5,0,5,3,13.0,0.0
963,InstrumentCallback,1,0,33,0,31,8,0,2,0,5.0,0.0
964,MakeDeclaredNamesUnique,7,3,146,1,66,13,0,4,3,14.285714285714286,1.0
965,ContextualRenameInverter,12,4,54,2,53,12,0,10,6,13.416666666666666,0.0
966,ContextualRenamer,7,4,15,1,18,4,0,5,4,15.428571428571429,0.0
967,InlineRenamer,5,4,18,1,14,3,0,5,1,15.8,0.0
968,BoilerplateRenamer,1,2,1,0,1,0,0,1,1,13.0,0.0
969,WhitelistedRenamer,4,2,10,1,6,1,0,3,1,16.5,0.0
970,ReplaceIdGenerators,6,10,132,1,65,13,0,10,2,17.666666666666668,0.0
971,ObfuscatedNameSuppier,2,3,6,1,5,1,0,2,0,12.0,0.0
972,PseudoNameSuppier,2,2,2,1,5,1,0,3,0,12.0,0.0
973,StableNameSupplier,2,0,4,1,2,0,0,2,0,12.0,0.0
974,GatherGenerators,1,0,32,0,31,9,0,3,0,5.0,0.0
975,ReplaceGenerators,1,0,31,0,33,9,0,5,0,5.0,0.0
976,CommandLineRunner,10,3,156,0,123,25,1,8,5,15.1,1.0
977,Flags,1,54,31,0,3,0,0,1,1,10.0,0.0
978,BooleanOptionHandler,2,2,12,0,19,3,0,4,0,18.0,0.0
979,WarningGuardErrorOptionHandler,0,0,0,0,0,0,0,0,0,0.0,0.0
980,WarningGuardWarningOptionHandler,0,0,0,0,0,0,0,0,0,0.0,0.0
981,WarningGuardOffOptionHandler,0,0,0,0,0,0,0,0,0,0.0,0.0
982,WarningGuardSetter,3,2,7,1,4,0,0,2,0,9.333333333333334,0.0
983,ExternExportsPass,6,10,163,1,46,11,0,9,2,14.333333333333334,0.0
984,Export,11,2,92,0,78,17,0,9,8,19.272727272727277,0.0
985,SymbolExport,1,0,2,0,1,0,0,1,1,15.0,0.0
986,PropertyExport,1,1,12,0,9,3,0,2,1,15.0,0.0
987,SyntacticScopeCreator,6,7,90,1,74,14,0,9,5,15.666666666666666,1.0
988,DefaultRedeclarationHandler,1,0,17,1,11,4,0,1,1,15.0,0.0
989,ExploitAssigns,6,0,63,0,80,19,0,18,6,16.833333333333332,1.0
990,ClosureCodingConvention,24,4,135,0,132,37,0,42,9,21.125,1.0
991,AssertInstanceofSpec,1,0,9,0,8,3,0,2,2,15.0,0.0
992,DependencyOptions,9,5,7,1,14,0,0,9,6,18.22222222222222,0.0
993,TypeValidator,33,17,246,0,201,56,0,25,25,17.424242424242426,1.0
994,TypeMismatch,3,3,8,0,6,1,0,4,1,7.333333333333333,0.0
995,SimpleDefinitionFinder,13,4,138,2,116,32,0,31,9,17.846153846153847,0.0
996,DefinitionGatheringCallback,2,1,37,0,45,17,0,2,1,15.0,0.0
997,UseSiteGatheringCallback,1,0,10,0,5,1,0,1,0,5.0,0.0
998,JsAst,6,6,30,1,23,2,0,3,1,9.833333333333334,1.0
999,RenameProperties,5,14,149,1,73,19,0,1,5,14.6,0.0
1000,ProcessExterns,1,0,11,0,9,2,0,0,1,5.0,0.0
1001,ProcessProperties,6,1,73,1,90,26,0,2,4,14.0,0.0
1002,Property,12,10,11,3,12,0,0,9,2,10.166666666666666,0.0
1003,PropertyAffinity,1,1,0,0,1,0,0,0,0,8.0,0.0
1004,Warning,4,2,4,0,4,0,0,2,1,8.0,0.0
1005,AntErrorManager,2,2,12,0,10,1,0,0,1,9.5,0.0
1006,CompileTask,35,20,141,0,179,39,8,12,29,15.114285714285714,0.0
1007,SecureCompiler,7,7,27,0,39,4,1,6,5,12.857142857142858,0.0
1008,Report,3,3,3,0,3,0,0,3,0,10.666666666666666,0.0
1009,Writer,40,0,319,0,412,34,3,3,4,13.625,0.0
1010,Validator,50,7,153,0,227,27,0,6,3,16.9,0.0
1011,JsonMLAst,9,6,26,1,41,7,1,10,3,12.11111111111111,0.0
1012,WalkHelper,0,2,0,0,0,0,0,0,0,0.0,0.0
1013,Reader,77,7,423,0,440,36,9,15,16,17.5974025974026,0.0
1014,ErrorReporter,4,1,5,0,7,1,1,0,3,6.0,0.0
1015,JsonMLUtil,5,0,51,0,30,6,0,6,5,11.0,0.0
1016,JsonMLComparator,6,5,31,0,64,18,0,19,3,12.5,0.0
1017,JsonML,22,3,79,0,74,10,1,10,20,11.272727272727272,0.0
1018,JsonMLException,0,1,0,0,0,0,0,0,1,0.0,0.0
1019,NodeUtil,4,0,13,0,7,0,0,5,5,16.75,1.0
1020,JsonMLError,2,5,4,0,2,0,0,2,1,4.0,0.0
1021,LinkedDirectedGraph,35,3,145,1,95,20,2,35,1,15.771428571428572,0.0
1022,LinkedDirectedGraphNode,10,3,22,2,10,0,2,8,1,10.0,0.0
1023,NeighborIterator,6,3,20,2,10,1,2,5,0,5.666666666666667,0.0
1024,AnnotatedLinkedDirectedGraphNode,2,1,2,0,2,0,0,1,1,13.0,0.0
1025,LinkedDirectedGraphEdge,14,3,17,2,14,0,2,10,1,10.0,0.0
1026,AnnotatedLinkedDirectedGraphEdge,2,1,2,0,2,0,0,1,1,13.0,0.0
1027,DiGraph,15,0,6,0,2,0,0,2,7,18.2,0.0
1028,GraphReachability,3,3,20,1,13,2,0,2,1,9.333333333333334,0.0
1029,EdgeTuple,0,3,0,0,0,0,0,0,1,0.0,0.0
1030,FixedPointGraphTraversal,4,2,30,0,19,5,0,1,5,15.75,0.0
1031,Graph,24,2,35,1,35,8,1,3,22,13.625,0.0
1032,AnnotationState,0,2,0,0,0,0,0,0,1,0.0,0.0
1033,GraphAnnotationState,0,1,0,0,0,0,0,0,1,0.0,0.0
1034,SimpleSubGraph,2,2,9,1,7,2,0,2,1,11.0,0.0
1035,GraphPruner,2,1,38,0,31,11,0,2,1,7.5,0.0
1036,LinkedUndirectedGraph,27,3,110,1,88,22,1,31,1,14.407407407407408,0.0
1037,LinkedUndirectedGraphNode,9,2,19,2,9,0,2,7,1,12.333333333333334,0.0
1038,NeighborIterator,3,1,9,1,7,1,1,3,0,5.666666666666667,0.0
1039,AnnotatedLinkedUndirectedGraphNode,2,1,2,0,2,0,0,1,1,13.0,0.0
1040,LinkedUndirectedGraphEdge,10,3,13,2,10,0,2,8,1,9.4,0.0
1041,AnnotatedLinkedUndirectedGraphEdge,2,1,2,0,2,0,0,1,1,13.0,0.0
1042,UndiGraph,4,0,0,0,0,0,0,0,2,23.25,0.0
1043,StandardUnionFind,9,2,51,2,53,10,0,17,3,9.88888888888889,0.0
1044,Node,189,26,522,2,619,103,15,205,70,11.91005291005291,1.0
1045,GraphColoring,3,2,27,0,8,1,0,3,3,11.333333333333334,0.0
1046,Color,2,1,2,1,6,1,0,3,0,7.0,0.0
1047,GreedyGraphColoring,1,1,23,0,15,2,0,2,1,5.0,0.0
1048,CharRanges,18,3,44,0,213,54,5,29,4,8.61111111111111,0.0
1049,RegExpTree,16,12,433,0,303,52,5,39,10,12.8125,0.0
1050,Parser,9,3,74,0,240,43,5,30,7,12.666666666666666,0.0
1051,RegExpTreeAtom,4,0,3,0,4,0,0,4,0,13.75,0.0
1052,Empty,5,1,3,0,3,0,0,3,0,10.6,0.0
1053,Anchor,6,1,6,0,6,0,0,4,0,11.166666666666666,0.0
1054,WordBoundary,5,1,6,0,5,0,0,3,0,10.6,0.0
1055,BackReference,5,1,7,0,5,0,0,3,0,10.6,0.0
1056,Text,7,1,24,0,30,7,0,7,1,12.714285714285714,0.0
1057,Repetition,12,3,53,0,94,23,1,19,0,12.75,0.0
1058,Alternation,9,1,50,0,85,24,0,13,0,12.0,0.0
1059,LookaheadAssertion,9,2,18,0,19,3,0,9,0,12.0,0.0
1060,CapturingGroup,9,1,16,0,10,0,0,7,0,12.0,0.0
1061,Charset,10,2,84,0,69,17,0,14,0,13.2,0.0
1062,DecomposedCharset,6,3,38,0,68,11,0,7,0,11.5,0.0
1063,Concatenation,9,1,39,0,84,22,0,15,0,12.0,0.0
1064,Simplifier,2,1,10,0,36,10,0,4,0,12.0,0.0
1065,CaseCanonicalize,4,4,209,0,36,11,0,9,5,16.25,0.0
1066,DeltaSet,0,2,0,0,0,0,0,0,1,0.0,0.0
1067,TestErrorReporter,12,8,19,2,30,4,0,6,6,14.285714285714286,0.0
1068,SimpleSourceExcerptProvider,2,1,5,1,2,0,0,2,1,14.0,0.0
1069,Protocol,2,3,15,0,6,1,0,1,3,18.5,0.0
1070,AbstractWebServiceException,3,0,5,0,1,0,0,1,1,12.333333333333334,0.0
1071,ClosureReverseAbstractInterpreter,2,5,57,0,17,5,0,4,1,28.0,1.0
1072,TypeRestriction,0,2,0,0,0,0,0,0,0,0.0,0.0
1073,SemanticReverseAbstractInterpreter,11,5,149,0,166,36,0,42,4,18.545454545454547,1.0
1074,RestrictByTrueInstanceOfResultVisitor,6,1,17,0,15,3,0,9,1,15.166666666666666,0.0
1075,RestrictByFalseInstanceOfResultVisitor,3,1,14,0,18,5,0,8,1,14.333333333333334,0.0
1076,ChainableReverseAbstractInterpreter,11,6,114,1,66,13,1,21,11,22.363636363636363,1.0
1077,RestrictByTypeOfResultVisitor,8,0,21,1,20,4,0,8,2,14.5,0.0
1078,RestrictByTrueTypeOfResultVisitor,8,0,8,0,8,0,0,8,1,14.125,0.0
1079,RestrictByFalseTypeOfResultVisitor,9,0,14,0,9,0,0,9,1,13.77777777777778,0.0
1080,RestrictByOneTypeOfResultVisitor,10,2,29,0,22,4,0,12,2,14.2,0.0
1081,JsFileParser,5,8,32,0,35,7,0,6,5,11.2,0.0
1082,DepsGenerator,19,12,121,0,108,28,0,11,12,18.94736842105263,0.0
1083,JsFileLineParser,6,9,49,0,73,17,4,3,6,12.833333333333334,0.0
1084,ParseException,1,2,1,0,1,0,0,1,1,7.0,0.0
1085,JsFunctionParser,4,5,24,0,25,5,0,4,4,9.75,0.0
1086,SymbolInfo,0,2,0,0,0,0,0,0,0,0.0,0.0
1087,PathUtil,6,2,44,0,46,12,1,11,7,13.5,0.0
1088,SimpleDependencyInfo,6,4,13,1,9,1,0,7,1,11.833333333333334,0.0
1089,DepsFileParser,4,5,32,0,21,4,1,4,5,10.5,0.0
1090,SortedDependencies,11,4,97,0,69,19,2,14,7,17.727272727272727,0.0
1091,CircularDependencyException,0,0,0,0,0,0,0,0,0,0.0,0.0
1092,MissingProvideException,0,0,0,0,0,0,0,0,0,0.0,0.0
1093,JsDocInfoParser,58,15,775,0,1087,223,1,119,47,18.29310344827586,1.0
1094,ErrorReporterParser,4,0,12,0,4,0,0,0,0,15.0,0.0
1095,ExtractionInfo,0,2,0,0,0,0,0,0,1,0.0,0.0
1096,ExtendedTypeInfo,0,3,0,0,0,0,0,0,1,0.0,0.0
1097,ParserRunner,7,4,36,0,42,4,0,7,1,12.142857142857142,0.0
1098,ParseResult,0,2,0,0,0,0,0,0,1,0.0,0.0
1099,JsDocTokenStream,20,19,55,0,231,41,0,46,5,11.35,0.0
1100,TypeSafeDispatcher,44,0,57,0,67,8,4,42,1,19.204545454545453,0.0
1101,IRFactory,29,19,540,0,219,25,1,112,4,15.586206896551724,1.0
1102,TransformDispatcher,56,0,416,0,299,58,0,56,4,18.589285714285715,0.0
1103,Config,1,6,6,0,7,2,0,1,2,20.0,0.0
1104,NullErrorReporter,4,0,2,0,2,0,0,2,1,8.5,0.0
1105,NewRhinoNullReporter,3,0,3,1,3,0,0,1,0,8.0,0.0
1106,OldRhinoNullReporter,0,0,0,1,0,0,0,0,0,0.0,0.0
1107,ScriptRuntime,10,2,39,0,176,41,2,20,3,14.2,0.0
1108,Node,189,22,522,2,619,103,15,205,69,11.91005291005291,1.0
1109,NumberNode,3,2,3,0,8,2,0,3,0,10.666666666666666,0.0
1110,StringNode,5,2,7,0,8,1,1,3,4,12.2,0.0
1111,AbstractPropListItem,3,3,2,2,2,0,0,2,0,6.333333333333333,0.0
1112,ObjectPropListItem,4,2,6,0,4,0,1,3,0,9.5,0.0
1113,IntPropListItem,4,2,6,0,4,0,1,3,0,9.5,0.0
1114,SiblingNodeIterable,4,3,6,2,14,2,2,4,1,6.25,0.0
1115,AncestorIterable,1,1,3,1,7,1,2,3,1,8.0,0.0
1116,FileLevelJsDocBuilder,1,0,5,0,8,2,0,0,1,6.0,0.0
1117,SideEffectFlags,11,1,17,0,13,0,0,2,4,14.090909090909092,0.0
1118,NodeMismatch,2,2,5,0,5,1,0,3,0,7.0,0.0
1119,SourcePosition,7,5,7,0,19,3,2,5,8,14.285714285714286,0.0
1120,SimpleErrorReporter,5,2,14,1,23,5,0,4,3,9.4,0.0
1121,JSTypeExpression,7,3,14,1,12,1,0,8,6,9.428571428571429,0.0
1122,TokenStream,2,0,47,0,268,38,0,5,1,11.5,1.0
1123,JSDocInfo,133,39,237,1,361,66,1,129,92,13.827067669172932,0.0
1124,LazilyInitializedInfo,0,14,0,1,0,0,0,0,0,0.0,0.0
1125,LazilyInitializedDocumentation,0,10,0,0,0,0,0,0,0,0.0,0.0
1126,StringPosition,0,0,0,0,0,0,0,0,1,0.0,0.0
1127,TrimmedStringPosition,1,0,5,0,2,0,0,0,1,7.0,0.0
1128,NamePosition,0,0,0,0,0,0,0,0,1,0.0,0.0
1129,TypePosition,2,1,1,0,2,0,0,1,2,12.5,0.0
1130,Marker,10,5,5,0,10,0,0,5,6,10.4,0.0
1131,JSDocInfoBuilder,68,4,220,0,374,55,0,110,68,16.691176470588236,1.0
1132,Token,1,2,1,0,103,0,1,101,1,4.0,0.0
1133,IR,75,0,201,0,193,12,0,80,6,7.693333333333333,1.0
1134,InputId,4,2,9,1,10,3,0,7,1,7.75,0.0
1135,AbstractStaticScope,5,0,5,1,4,0,0,4,1,11.0,0.0
1136,BaseJSTypeTestCase,18,56,202,0,176,0,0,8,4,15.61111111111111,0.0
1137,MapBasedScope,2,1,9,0,2,0,0,2,1,8.5,0.0
1138,TestErrorReporter,7,4,10,1,17,2,0,3,3,14.285714285714286,0.0
1139,Asserts,9,0,69,0,39,2,0,4,4,19.88888888888889,0.0
1140,NoType,11,1,11,0,11,0,0,11,1,13.909090909090908,0.0
1141,PrototypeObjectType,29,8,132,0,147,38,0,40,4,17.517241379310345,1.0
1142,VoidType,10,1,16,0,16,2,0,12,1,17.4,0.0
1143,FunctionParamBuilder,9,2,36,0,35,7,0,12,6,15.444444444444445,0.0
1144,NumberType,11,1,16,0,17,2,0,13,1,15.818181818181818,0.0
1145,PropertyMap,14,5,37,1,57,16,0,18,3,14.357142857142858,0.0
1146,RecordTypeBuilder,3,4,7,0,11,2,0,4,4,10.0,1.0
1147,RecordProperty,2,2,2,0,2,0,0,2,0,11.0,0.0
1148,RecordType,8,3,63,0,67,21,0,19,3,16.5,1.0
1149,Property,12,6,11,3,12,0,0,9,1,10.166666666666666,0.0
1150,ErrorFunctionType,0,1,7,0,0,0,0,0,1,0.0,0.0
1151,NullType,11,1,17,0,20,3,0,14,1,16.727272727272727,0.0
1152,JSType,118,15,330,1,365,79,2,177,85,15.516949152542374,1.0
1153,TypePair,0,2,0,0,0,0,0,0,0,0.0,0.0
1154,ProxyObjectType,56,3,105,0,72,5,0,54,1,15.428571428571429,0.0
1155,ModificationVisitor,18,1,67,1,71,16,0,23,1,14.833333333333334,0.0
1156,JSTypeRegistry,84,18,546,1,407,62,2,94,69,20.297619047619047,1.0
1157,UnknownType,20,2,19,0,20,0,0,20,1,14.85,0.0
1158,SimpleSlot,5,4,5,2,5,0,0,5,1,10.8,0.0
1159,AllType,12,1,11,0,12,0,0,12,1,14.166666666666666,0.0
1160,StringType,10,1,15,0,16,2,0,12,1,16.4,0.0
1161,FunctionType,70,10,389,0,430,107,2,95,40,16.857142857142858,1.0
1162,CanCastToVisitor,15,0,58,1,60,15,0,27,1,14.8,0.0
1163,IndexedType,1,2,1,0,1,0,0,1,1,12.0,0.0
1164,UnresolvedTypeExpression,1,3,2,0,1,0,0,1,2,15.0,0.0
1165,ValueType,3,0,2,0,3,0,0,3,1,11.333333333333334,0.0
1166,InstanceObjectType,18,2,67,0,32,4,0,21,2,15.833333333333334,0.0
1167,TemplateType,6,2,7,0,6,0,0,6,0,14.333333333333334,0.0
1168,EnumType,17,4,29,0,22,1,0,18,5,13.764705882352942,0.0
1169,SimpleSourceFile,6,2,6,1,9,1,1,6,1,11.333333333333334,0.0
1170,UnionType,38,3,141,0,263,80,0,62,9,15.578947368421051,1.0
1171,UnionTypeBuilder,5,10,63,1,113,32,0,20,4,15.6,0.0
1172,ObjectType,55,3,114,1,111,17,0,55,43,16.745454545454546,1.0
1173,SimpleReference,4,2,5,1,4,0,0,4,1,9.25,0.0
1174,FunctionBuilder,14,10,23,0,36,0,0,14,15,13.928571428571429,1.0
1175,BooleanType,11,1,17,0,17,2,0,13,1,15.909090909090908,0.0
1176,NamedType,20,7,86,0,119,28,0,24,6,16.65,1.0
1177,PropertyContinuation,1,4,1,0,1,0,0,0,1,6.0,0.0
1178,NoResolvedType,4,1,5,0,8,1,0,5,1,11.75,0.0
1179,ParameterizedType,11,2,38,0,35,8,0,17,2,15.909090909090908,0.0
1180,EnumElementType,25,4,47,0,39,3,0,28,5,13.44,0.0
1181,NoObjectType,17,1,23,0,20,1,0,17,1,14.529411764705882,0.0
1182,ArrowType,15,4,62,0,102,31,5,22,2,17.0,1.0
